<?xml version="1.0" encoding="UTF-8"?>
<svg width="22px" height="18px" viewBox="0 0 22 18" version="1.1" xmlns="http://www.w3.org/2000/svg" xmlns:xlink="http://www.w3.org/1999/xlink">
    <!-- Generator: Sketch 42 (36781) - http://www.bohemiancoding.com/sketch -->
    <title>icn_imagem</title>
    <desc>Created with Sketch.</desc>
    <defs>
        <rect id="path-1" x="0" y="0" width="23" height="23"></rect>
        <mask id="mask-2" maskContentUnits="userSpaceOnUse" maskUnits="objectBoundingBox" x="0" y="0" width="23" height="23" fill="white">
            <use xlink:href="#path-1"></use>
        </mask>
    </defs>
    <g id="Symbols" stroke="none" stroke-width="1" fill="none" fill-rule="evenodd">
        <g id="Group-2-Copy" transform="translate(0.000000, -2.000000)" stroke="#A7A7A7">
            <use id="Rectangle-19" mask="url(#mask-2)" stroke-width="2.5" opacity="0" xlink:href="#path-1"></use>
            <path d="M19.097141,19 L2.90285905,19 C1.857238,19 1,18.1529412 1,17.1176471 L1,4.88235294 C1,3.84705882 1.857238,3 2.90285905,3 L19.097141,3 C20.1437134,3 21,3.84705882 21,4.88235294 L21,17.1176471 C21,18.1529412 20.1437134,19 19.097141,19 Z" id="Stroke-1" stroke-width="1.25"></path>
            <polyline id="Path-6" stroke-width="1.25" stroke-linecap="round" stroke-linejoin="round" points="3.61077116 19.0392648 8.19672131 13.65955 11.0241099 15.638879 17.4002089 9 20.8044515 12.8297269"></polyline>
            <path d="M8,8 C8,9.104 7.104,10 6,10 C4.896,10 4,9.104 4,8 C4,6.896 4.896,6 6,6 C7.104,6 8,6.896 8,8 L8,8 Z" id="Stroke-7" stroke-width="1.25"></path>
        </g>
    </g>
</svg>