<?xml version="1.0" encoding="UTF-8" standalone="no"?>
<svg width="22px" height="22px" viewBox="0 0 22 22" version="1.1" xmlns="http://www.w3.org/2000/svg" xmlns:xlink="http://www.w3.org/1999/xlink" xmlns:sketch="http://www.bohemiancoding.com/sketch/ns">
    <!-- Generator: Sketch 3.5.2 (25235) - http://www.bohemiancoding.com/sketch -->
    <title>icn_received</title>
    <desc>Created with Sketch.</desc>
    <defs></defs>
    <g id="Page-1" stroke="none" stroke-width="1" fill="none" fill-rule="evenodd" sketch:type="MSPage">
        <g id="Group-6" sketch:type="MSLayerGroup" transform="translate(2.000000, 0.000000)">
            <g id="Group-Copy-9" transform="translate(5.000000, 4.000000)" sketch:type="MSShapeGroup">
                <rect id="Rectangle-628" fill="#E8E8E8" x="0" y="0" width="11" height="17"></rect>
                <path d="M0,1.20971928 C0,0.541609769 0.551223755,0 1.20145679,0 L10.2271146,0 C10.8906609,0 11.4285714,0.546032524 11.4285714,1.20971928 L11.4285714,16.3902807 C11.4285714,17.0583902 10.8773477,17.6 10.2271146,17.6 L1.20145679,17.6 C0.537910525,17.6 0,17.0539675 0,16.3902807 L0,1.20971928 Z M4.28571429,1.98 C4.28571429,1.85849736 4.38077654,1.76 4.50990949,1.76 L6.91866193,1.76 C7.04248153,1.76 7.14285714,1.86205078 7.14285714,1.98 L7.14285714,1.98 C7.14285714,2.10150264 7.04779489,2.2 6.91866193,2.2 L4.50990949,2.2 C4.3860899,2.2 4.28571429,2.09794922 4.28571429,1.98 L4.28571429,1.98 Z M1.42857143,3.78538574 C1.42857143,3.63881724 1.54973984,3.52 1.69449636,3.52 L9.73407507,3.52 C9.88094135,3.52 10,3.64057031 10,3.78538574 L10,13.9906143 C10,14.1371828 9.87883159,14.256 9.73407507,14.256 L1.69449636,14.256 C1.54763008,14.256 1.42857143,14.1354297 1.42857143,13.9906143 L1.42857143,3.78538574 Z M5.71428571,16.896 C6.34546829,16.896 6.85714286,16.4232127 6.85714286,15.84 C6.85714286,15.2567873 6.34546829,14.784 5.71428571,14.784 C5.08310314,14.784 4.57142857,15.2567873 4.57142857,15.84 C4.57142857,16.4232127 5.08310314,16.896 5.71428571,16.896 Z" id="Rectangle-600-Copy-3" fill="#4A4A4A"></path>
            </g>
            <path d="M3,8.84375 L4.99804688,5.87890625 L3.0859375,3 L4.96044922,3 L5.93798828,4.69726562 L6.89404297,3 L8.71484375,3 L6.79199219,5.85205078 L8.79003906,8.84375 L6.88330078,8.84375 L5.87353516,7.08740234 L4.85839844,8.84375 L3,8.84375 Z" id="x" fill="#FFFFFF" sketch:type="MSShapeGroup"></path>
            <g id="Group-9" sketch:type="MSShapeGroup">
                <circle id="Oval-25" fill="#458900" cx="6" cy="6" r="6"></circle>
                <path d="M3.25732422,6.26806641 L5.17626953,8.31005859 L9.10302734,4.01953125" id="Path-20" stroke="#FFFFFF" stroke-width="1.5" stroke-linecap="square" stroke-linejoin="round"></path>
            </g>
        </g>
    </g>
</svg>