1\tEXEC\tAEUSER|PERM\tOpenUserSession("user_livetouch_1@teste.com.br", "12345678", "26", "1", "en", "", "CliApp=AEMB_IPad;CliAppVer=1.2.3.4;CliAppIP=9999999")\n
2\tEXEC\tAEUSER|PERM\tOpenUserSession("user_livetouch_1@teste.com.br", "12345678", "26", "1", "pt", "", "CliApp=AEMB_IPad;CliAppVer=1.2.3.4;CliAppIP=9999999")\n
3\tEXEC\tAEUSER|PERM\tOpenUserSession("user_livetouch_1@teste.com.br", "12345678", "26", "1", "pt", "", "CliApp=AELT_IPad;CliAppVer=1.1.00")\n
4\tEXEC\tAEUSER|PERM\tOpenUserSession("user_livetouch_1@teste.com.br", "12345678", "26", "1", "pt", "", "CliApp=AELT_IPhone;CliAppVer=1.1.00")\n
5\tEXEC\tAEUSER|PERM\tOpenUserSession("user_livetouch_1@teste.com.br", "12345678", "26", "1", "pt", "", "CliApp=AELT_AndroidP;CliAppVer=1.1.00")\n
6\tEXEC\tAEUSER|PERM\tOpenUserSession("user_livetouch_1@teste.com.br", "12345678", "26", "1", "pt", "", "CliApp=AELT_AndroidT;CliAppVer=1.1.00")\n

1\tEXEC\tAEUSER|PERM\tOpenUserSession("user_livetouch_5@teste.com.br", "12345678", "26", "1", "en", "", "CliApp=AEMB_IPad;CliAppVer=1.2.3.4;CliAppIP=9999999")\n
2\tEXEC\tAEUSER|PERM\tOpenUserSession("user_livetouch_5@teste.com.br", "12345678", "26", "1", "pt", "", "CliApp=AEMB_IPad;CliAppVer=1.2.3.4;CliAppIP=9999999")\n

3\tEXEC\tAEUSER|PERM\tOpenUserSession("user_livetouch_5@teste.com.br", "12345678", "26", "1", "pt", "", "CliApp=AELT_IPad;CliAppVer=1.1.00")\n
4\tEXEC\tAEUSER|PERM\tOpenUserSession("user_livetouch_5@teste.com.br", "12345678", "26", "1", "pt", "", "CliApp=AELT_IPhone;CliAppVer=1.1.00")\n
5\tEXEC\tAEUSER|PERM\tOpenUserSession("user_livetouch_5@teste.com.br", "12345678", "26", "1", "pt", "", "CliApp=AELT_AndroidP;CliAppVer=1.1.00")\n
6\tEXEC\tAEUSER|PERM\tOpenUserSession("user_livetouch_5@teste.com.br", "12345678", "26", "1", "pt", "", "CliApp=AELT_AndroidT;CliAppVer=1.1.00")\n

OK
6\tEXEC\tAEUSER|PERM\tOpenUserSession("user_livetouch_5@teste.com.br", "12345678", "26", "1", "pt", "", "CliApp=AEMB_IPad;CliAppVer=1.0;")\n
6\tEXEC\tAEUSER|PERM\tOpenUserSession("user_livetouch_5@teste.com.br", "12345678", "26", "1", "pt", "", "CliApp=AELT_IPad;CliAppVer=1.0;")\n