<?xml version="1.0" encoding="UTF-8" standalone="no"?>
<svg width="29px" height="24px" viewBox="0 0 29 24" version="1.1" xmlns="http://www.w3.org/2000/svg" xmlns:xlink="http://www.w3.org/1999/xlink" xmlns:sketch="http://www.bohemiancoding.com/sketch/ns">
    <!-- Generator: Sketch 3.4.4 (17249) - http://www.bohemiancoding.com/sketch -->
    <title>icn_cam_on</title>
    <desc>Created with Sketch.</desc>
    <defs></defs>
    <g id="Livecom-1.5" stroke="none" stroke-width="1" fill="none" fill-rule="evenodd" sketch:type="MSPage">
        <circle id="Oval" fill="#52B3BC" sketch:type="MSShapeGroup" cx="14.5" cy="13.5" r="4"></circle>
        <path d="M10.75,1 L8.5,3.44444444 L4.5,3.44444444 C3.125,3.44444444 2,4.54444444 2,5.88888889 L2,20.5555556 C2,21.9 3.125,23 4.5,23 L24.5,23 C25.875,23 27,21.9 27,20.5555556 L27,5.88888889 C27,4.54444444 25.875,3.44444444 24.5,3.44444444 L20.5,3.44444444 L18.25,1 L10.75,1 L10.75,1 Z M14.5,19.3333333 C11,19.3333333 8.25,16.6444444 8.25,13.2222222 C8.25,9.8 11,7.11111111 14.5,7.11111111 C18,7.11111111 20.75,9.8 20.75,13.2222222 C20.75,16.6444444 18,19.3333333 14.5,19.3333333 L14.5,19.3333333 Z" id="Shape" fill="#52B3BC" sketch:type="MSShapeGroup"></path>
    </g>
</svg>