<?xml version="1.0" encoding="UTF-8" standalone="no"?>
<svg width="29px" height="24px" viewBox="0 0 29 24" version="1.1" xmlns="http://www.w3.org/2000/svg" xmlns:xlink="http://www.w3.org/1999/xlink" xmlns:sketch="http://www.bohemiancoding.com/sketch/ns">
    <!-- Generator: Sketch 3.4.4 (17249) - http://www.bohemiancoding.com/sketch -->
    <title>icn_arq_on</title>
    <desc>Created with Sketch.</desc>
    <defs></defs>
    <g id="Livecom-1.5" stroke="none" stroke-width="1" fill="none" fill-rule="evenodd" sketch:type="MSPage">
        <path d="M7.74583333,19.4916667 C3.52083333,19.4916667 0,15.9708333 0,11.7458333 C0,7.52083333 3.52083333,4 7.74583333,4 L22.5333333,4 C25.6316667,4 28.1666667,6.535 28.1666667,9.63333333 C28.1666667,12.7316667 25.6316667,15.2666667 22.5333333,15.2666667 L10.5625,15.2666667 C8.59083333,15.2666667 7.04166667,13.7175 7.04166667,11.7458333 C7.04166667,9.77416667 8.59083333,8.225 10.5625,8.225 L21.125,8.225 L21.125,10.3375 L10.5625,10.3375 C9.7175,10.3375 9.15416667,10.9008333 9.15416667,11.7458333 C9.15416667,12.5908333 9.7175,13.1541667 10.5625,13.1541667 L22.5333333,13.1541667 C24.505,13.1541667 26.0541667,11.605 26.0541667,9.63333333 C26.0541667,7.66166667 24.505,6.1125 22.5333333,6.1125 L7.74583333,6.1125 C4.6475,6.1125 2.1125,8.6475 2.1125,11.7458333 C2.1125,14.8441667 4.6475,17.3791667 7.74583333,17.3791667 L21.125,17.3791667 L21.125,19.4916667 L7.74583333,19.4916667 L7.74583333,19.4916667 Z" id="Shape" fill="#8F9F9F" sketch:type="MSShapeGroup"></path>
    </g>
</svg>