<?xml version="1.0" encoding="UTF-8" standalone="no"?>
<svg width="117px" height="30px" viewBox="0 0 117 30" version="1.1" xmlns="http://www.w3.org/2000/svg" xmlns:xlink="http://www.w3.org/1999/xlink" xmlns:sketch="http://www.bohemiancoding.com/sketch/ns">
    <!-- Generator: Sketch 3.5.2 (25235) - http://www.bohemiancoding.com/sketch -->
    <title>logo_livecom</title>
    <desc>Created with Sketch.</desc>
    <defs>
        <path id="path-1" d="M0,0.0892363636 L116.575527,0.0892363636 L116.575527,30 L0,30 L0,0.0892363636 Z"></path>
    </defs>
    <g id="---postar-v2" stroke="none" stroke-width="1" fill="none" fill-rule="evenodd" sketch:type="MSPage">
        <g id="Group-22-Copy" sketch:type="MSLayerGroup">
            <g id="Page-1">
                <path d="M0,13.6476 L2.24454545,13.6476 L2.24454545,26.8940727 C2.24454545,27.4208727 2.52534545,27.6843273 3.08694545,27.6843273 L3.86476364,27.6843273 L3.86476364,29.8633091 L2.86363636,29.8633091 C2.04534545,29.8633091 1.37072727,29.6528727 0.839781818,29.2316727 C0.279709091,28.8036 0,28.0834909 0,27.0716727 L0,13.6476 Z" id="Fill-1" fill="#FFFFFF" sketch:type="MSShapeGroup"></path>
                <mask id="mask-2" sketch:name="Clip 4" fill="white">
                    <use xlink:href="#path-1"></use>
                </mask>
                <g id="Clip-4"></g>
                <path d="M6.6564,18.3188727 L8.90083636,18.3188727 L8.90083636,29.8633091 L6.6564,29.8633091 L6.6564,18.3188727 Z M6.6564,13.6476 L8.90083636,13.6476 L8.90083636,15.96 L6.6564,15.96 L6.6564,13.6476 Z" id="Fill-3" fill="#FFFFFF" sketch:type="MSShapeGroup" mask="url(#mask-2)"></path>
                <path d="M10.9381745,18.3188618 L13.3166836,18.3188618 L15.94272,26.4098073 L15.9857018,26.4098073 L18.6009382,18.3188618 L20.9902473,18.3188618 L16.8897382,29.8632982 L15.0385745,29.8632982 L10.9381745,18.3188618 Z" id="Fill-5" fill="#FFFFFF" sketch:type="MSShapeGroup" mask="url(#mask-2)"></path>
                <path d="M29.1613091,23.0577055 C29.1325091,22.1561782 28.8986182,21.4744691 28.4596364,21.0124691 C28.0276364,20.5730509 27.4733455,20.3531236 26.7969818,20.3531236 C26.1202909,20.3531236 25.5661091,20.5730509 25.1341091,21.0124691 C24.7094182,21.4744691 24.4756364,22.1561782 24.4324364,23.0577055 L29.1613091,23.0577055 Z M24.4324364,24.96876 C24.4324364,25.89636 24.6910909,26.6010873 25.2086182,27.0833782 C25.6899273,27.5729782 26.3223273,27.8179964 27.1057091,27.8179964 C28.0183636,27.8179964 28.8339273,27.4432691 29.5526182,26.6937055 L31.1803636,28.1291236 C30.0387273,29.3890145 28.6961455,30.0115964 27.1526182,29.9966509 C26.5638545,29.9966509 25.9894909,29.9077418 25.4295273,29.7298145 C25.1494909,29.6334873 24.8766545,29.5036691 24.6112364,29.3405782 C24.3309818,29.1998509 24.0689455,29.0254145 23.8250182,28.8179236 C23.3511273,28.3878873 22.9670182,27.7873418 22.6726909,27.0161782 C22.3495636,26.2747964 22.188,25.31076 22.188,24.1243964 C22.188,22.98276 22.3278545,22.03356 22.608,21.2772327 C22.8878182,20.5061782 23.2468364,19.8981055 23.6847273,19.4532327 C24.1298182,19.0010509 24.6286909,18.67476 25.1815636,18.4744691 C25.7272364,18.2743964 26.2656,18.1742509 26.7969818,18.1742509 C28.0747636,18.1891964 29.1550909,18.6229418 30.0382909,19.4758145 C30.9356727,20.3435236 31.3914545,21.5375236 31.4059636,23.0577055 L31.4059636,24.96876 L24.4324364,24.96876 Z" id="Fill-6" fill="#FFFFFF" sketch:type="MSShapeGroup" mask="url(#mask-2)"></path>
                <path d="M39.0753709,30 C36.2508982,30 34.1097709,28.0865455 34.1097709,24.2598545 C34.1097709,20.4331636 36.2508982,18.5198182 39.0753709,18.5198182 C40.6244618,18.5198182 41.6037709,18.9297818 42.76548,20.1825818 L41.6493709,21.2302909 C40.8065345,20.2964727 40.1459891,19.9774909 39.0753709,19.9774909 C37.9820618,19.9774909 37.0708255,20.4102545 36.47868,21.2532 C35.9547164,21.9820364 35.7498436,22.8475636 35.7498436,24.2598545 C35.7498436,25.6721455 35.9547164,26.5376727 36.47868,27.2665091 C37.0708255,28.1093455 37.9820618,28.5422182 39.0753709,28.5422182 C40.1459891,28.5422182 40.8065345,28.2004364 41.6493709,27.2665091 L42.76548,28.3371273 C41.6037709,29.5899273 40.6244618,30 39.0753709,30" id="Fill-7" fill="#99F3FF" sketch:type="MSShapeGroup" mask="url(#mask-2)"></path>
                <path d="M51.1018473,20.7975818 C50.5551927,20.2508182 49.8490473,19.9774364 49.0518109,19.9774364 C48.2546836,19.9774364 47.5713382,20.2508182 47.0245745,20.7975818 C46.2045382,21.6176182 46.1134473,22.9843091 46.1134473,24.2598 C46.1134473,25.5127091 46.1818473,26.8794 47.0245745,27.7221273 C47.5713382,28.2686727 48.2546836,28.5421636 49.0518109,28.5421636 C49.8490473,28.5421636 50.5551927,28.2686727 51.1018473,27.7221273 C51.9219927,26.8794 51.9901745,25.5127091 51.9901745,24.2598 C51.9901745,22.9843091 51.9219927,21.6176182 51.1018473,20.7975818 M52.2635564,28.7243455 C51.48912,29.5216909 50.4183927,29.9999455 49.0518109,29.9999455 C47.68512,29.9999455 46.6146109,29.5216909 45.8401745,28.7243455 C44.7011564,27.5627455 44.4734836,25.9909636 44.4734836,24.2598 C44.4734836,22.5287455 44.7011564,20.9341636 45.8401745,19.7953636 C46.6146109,18.9981273 47.68512,18.5197636 49.0518109,18.5197636 C50.4183927,18.5197636 51.48912,18.9981273 52.2635564,19.7953636 C53.4024655,20.9341636 53.6302473,22.5287455 53.6302473,24.2598 C53.6302473,25.9909636 53.4024655,27.5627455 52.2635564,28.7243455" id="Fill-8" fill="#99F3FF" sketch:type="MSShapeGroup" mask="url(#mask-2)"></path>
                <path d="M70.3380109,29.86332 L70.3380109,22.9614655 C70.3380109,20.97972 69.2672836,19.9775018 67.5816109,19.9775018 C65.9417564,19.9775018 64.7800473,21.0026291 64.7800473,22.7792836 L64.7800473,29.86332 L63.1399745,29.86332 L63.1399745,22.9614655 C63.1399745,20.97972 62.0694655,19.9775018 60.3837927,19.9775018 C58.6983382,19.9775018 57.58212,21.0026291 57.58212,22.9614655 L57.58212,29.86332 L55.9420473,29.86332 L55.9420473,18.6564109 L57.58212,18.6564109 L57.58212,19.8864109 C58.3792473,18.9752836 59.4954655,18.5198291 60.7482655,18.5198291 C62.2972473,18.5198291 63.5045564,19.1575745 64.1877927,20.3875745 C65.0534291,19.1575745 66.30612,18.5198291 67.8779018,18.5198291 C69.0852109,18.5198291 70.0874291,18.9069927 70.7706655,19.5676473 C71.5679018,20.3420836 71.9778655,21.3897927 71.9778655,22.6881927 L71.9778655,29.86332 L70.3380109,29.86332 Z" id="Fill-9" fill="#99F3FF" sketch:type="MSShapeGroup" mask="url(#mask-2)"></path>
                <path d="M89.5624145,29.86332 L89.5624145,22.9614655 C89.5624145,20.97972 88.4916873,19.9775018 86.8060145,19.9775018 C85.16616,19.9775018 84.0044509,21.0026291 84.0044509,22.7792836 L84.0044509,29.86332 L82.3643782,29.86332 L82.3643782,22.9614655 C82.3643782,20.97972 81.2938691,19.9775018 79.6081964,19.9775018 C77.9227418,19.9775018 76.8065236,21.0026291 76.8065236,22.9614655 L76.8065236,29.86332 L75.1664509,29.86332 L75.1664509,18.6564109 L76.8065236,18.6564109 L76.8065236,19.8864109 C77.6036509,18.9752836 78.7198691,18.5198291 79.9726691,18.5198291 C81.5216509,18.5198291 82.72896,19.1575745 83.4121964,20.3875745 C84.2778327,19.1575745 85.5305236,18.5198291 87.1023055,18.5198291 C88.3096145,18.5198291 89.3118327,18.9069927 89.9950691,19.5676473 C90.7923055,20.3420836 91.2022691,21.3897927 91.2022691,22.6881927 L91.2022691,29.86332 L89.5624145,29.86332 Z" id="Fill-10" fill="#99F3FF" sketch:type="MSShapeGroup" mask="url(#mask-2)"></path>
                <path d="M100.587993,14.7052255 L98.0063564,22.3254436 L103.176611,17.9779527 L116.575484,17.9779527 L116.575484,15.7548982 C116.466393,11.5536982 114.849447,7.61431636 111.872138,4.66591636 C108.891993,1.71468 104.931884,0.0893345455 100.726756,0.0893345455 C96.7334836,0.0893345455 92.92032,1.57002545 89.9926473,4.27046182 C87.1506109,6.89202545 85.3738473,10.45068 84.9713018,14.2688618 L88.7921018,14.2688618 C89.61432,8.26886182 94.7003564,3.84729818 100.721193,3.84729818 C106.815447,3.84729818 111.956902,8.38351636 112.680829,14.4032618 L112.717593,14.7052255 L100.587993,14.7052255 Z" id="Fill-11" fill="#FFFFFF" sketch:type="MSShapeGroup" mask="url(#mask-2)"></path>
            </g>
        </g>
    </g>
</svg>