<?xml version="1.0" standalone="no"?>
<!DOCTYPE svg PUBLIC "-//W3C//DTD SVG 1.1//EN" "http://www.w3.org/Graphics/SVG/1.1/DTD/svg11.dtd" >
<svg xmlns="http://www.w3.org/2000/svg">
<metadata></metadata>
<defs>
<font id="robotolight_italic" horiz-adv-x="1140" >
<font-face units-per-em="2048" ascent="1536" descent="-512" />
<missing-glyph horiz-adv-x="498" />
<glyph unicode="&#xfb01;" horiz-adv-x="1100" d="M116 984l14 98h180l21 138q27 179 134.5 270t278.5 91q64 0 132.5 -15t134.5 -44l-35 -103q-57 25 -112 39t-128 14q-118 0 -193 -65.5t-92 -186.5l-21 -138h253l-14 -98h-253l-148 -984h-120l147 984h-179zM728 0l162 1082h120l-162 -1082h-120z" />
<glyph horiz-adv-x="2048" />
<glyph horiz-adv-x="2048" />
<glyph unicode="&#xd;" horiz-adv-x="498" />
<glyph horiz-adv-x="0" />
<glyph unicode="&#x9;" horiz-adv-x="0" />
<glyph unicode=" "  horiz-adv-x="498" />
<glyph unicode="&#x09;" horiz-adv-x="498" />
<glyph unicode="&#xa0;" horiz-adv-x="498" />
<glyph unicode="!" horiz-adv-x="462" d="M78 0l25 167h142l-25 -167h-142zM161 478l146 978h119l-146 -978h-119z" />
<glyph unicode="&#x22;" horiz-adv-x="666" d="M204 979l61 255l31 222h120l-30 -216l-110 -261h-72zM443 979l62 258l31 219h119l-30 -216l-110 -261h-72z" />
<glyph unicode="#" horiz-adv-x="1270" d="M49 410l13 93h273l149 441h-279l14 96h297l141 416h100l-141 -416h314l141 416h100l-141 -416h229l-14 -96h-248l-149 -441h255l-13 -93h-273l-139 -410h-100l139 410h-314l-138 -410h-100l138 410h-254zM435 503h313l149 441h-313z" />
<glyph unicode="$" horiz-adv-x="1154" d="M111 413l3 5h113q-26 -185 63 -259t235 -74q142 0 242 78.5t117 195.5q16 114 -45.5 182t-236.5 133q-198 66 -285.5 159t-63.5 262q23 169 136.5 268t289.5 112l28 202h102l-29 -203q167 -17 251.5 -131t57.5 -306h-120q21 153 -45 243t-211 90q-143 0 -234 -78.5 t-106 -194.5q-17 -118 41 -185t244 -132q197 -69 283.5 -160.5t63.5 -258.5q-25 -172 -141 -269t-296 -111l-26 -189h-102l26 189q-175 13 -282 117.5t-73 314.5z" />
<glyph unicode="%" horiz-adv-x="1514" d="M195 1099l11 77q19 131 110.5 216t220.5 85q122 0 189.5 -88t48.5 -213l-11 -77q-20 -131 -110 -215t-217 -84q-124 0 -193 87t-49 212zM291 1099q-14 -91 26 -151.5t133 -60.5q85 0 145 62.5t73 149.5l11 77q14 91 -25.5 152.5t-129.5 61.5q-86 0 -147.5 -64t-74.5 -150 zM297 169l882 1138l67 -48l-882 -1138zM804 279l12 78q19 130 110 215t220 85q122 0 190 -87.5t50 -212.5l-12 -78q-20 -132 -110.5 -216t-217.5 -84q-124 0 -193 87.5t-49 212.5zM901 279q-14 -91 25.5 -152t132.5 -61q85 0 145 63t73 150l12 78q14 94 -25.5 153.5 t-130.5 59.5q-87 0 -147 -62t-73 -151z" />
<glyph unicode="&#x26;" horiz-adv-x="1260" d="M67 371q18 125 103 217.5t241 195.5l16 11q-66 101 -92.5 183t-13.5 169q24 164 125 247t258 83q138 0 213 -81.5t57 -203.5q-15 -94 -68 -156t-150 -129l-177 -122l338 -479q61 72 101.5 159t55.5 186h110q-21 -133 -73 -238.5t-134 -191.5l157 -221h-144l-101 141 q-97 -78 -204 -120t-224 -42q-201 0 -311 108.5t-83 283.5zM187 371q-20 -129 52.5 -210t236.5 -81q88 0 180.5 37t175.5 105l-340 479l-12 16l-52 -36q-130 -94 -181 -170t-60 -140zM441 1149q-11 -68 10.5 -138t74.5 -150l197 132q65 45 96.5 94t40.5 105q12 81 -33 132 t-139 51q-98 0 -165.5 -65.5t-81.5 -160.5z" />
<glyph unicode="'" horiz-adv-x="423" d="M205 986l62 266l29 204h120l-27 -195l-112 -275h-72z" />
<glyph unicode="(" horiz-adv-x="640" d="M145 573l2 15q53 378 229.5 657.5t364.5 379.5l6 -1l16 -73q-159 -103 -304.5 -366t-190.5 -594l-3 -20q-49 -344 22 -599.5t204 -364.5l-36 -70l-6 1q-159 99 -258 381.5t-46 653.5z" />
<glyph unicode=")" horiz-adv-x="652" d="M-112 -393q158 102 303.5 367t192.5 597l3 20q48 342 -25 600.5t-201 363.5l35 70l6 -1q156 -97 254.5 -385t48.5 -651l-2 -15q-54 -388 -228.5 -661t-364.5 -375l-6 1z" />
<glyph unicode="*" horiz-adv-x="869" d="M126 782l47 101l259 -92l35 291l104 -1l-48 -294l279 97l17 -101l-285 -84l137 -230l-94 -62l-127 241l-195 -239l-76 60l208 237z" />
<glyph unicode="+" horiz-adv-x="1156" d="M89 628l17 112h434l70 466h121l-70 -466h443l-17 -112h-443l-72 -482h-121l72 482h-434z" />
<glyph unicode="," horiz-adv-x="392" d="M-36 -258l111 279l25 167h119l-25 -170l-148 -276h-82z" />
<glyph unicode="-" horiz-adv-x="860" d="M136 570l15 101h590l-15 -101h-590z" />
<glyph unicode="." horiz-adv-x="489" d="M87 0l25 164h137l-25 -164h-137z" />
<glyph unicode="/" horiz-adv-x="813" d="M-69 -125l845 1581h108l-844 -1581h-109z" />
<glyph unicode="0" horiz-adv-x="1135" d="M112 514l64 428q38 257 179 396t354 139q202 0 305.5 -145.5t66.5 -389.5l-64 -428q-39 -259 -178.5 -397t-352.5 -138q-202 0 -306.5 145t-67.5 390zM228 496q-29 -196 41.5 -306t231.5 -110q153 0 259 114.5t134 301.5l70 465q29 197 -40 305.5t-231 108.5 q-154 0 -260.5 -113t-134.5 -301z" />
<glyph unicode="1" horiz-adv-x="1135" d="M311 1311l14 96l476 70l-222 -1477h-120l203 1353z" />
<glyph unicode="2" horiz-adv-x="1135" d="M78 0l13 92l557 559q149 151 211 247.5t76 190.5q19 138 -40.5 212t-201.5 74q-150 0 -250.5 -93.5t-120.5 -235.5h-111l-2 6q21 185 157 305t341 120q180 0 276.5 -106t71.5 -283q-18 -124 -102 -235.5t-251 -286.5l-458 -459l2 -6h732l-14 -101h-886z" />
<glyph unicode="3" horiz-adv-x="1135" d="M91 389l3 6h112q-21 -141 64.5 -228t239.5 -87q146 0 247.5 85t123.5 226q23 160 -56 232.5t-250 72.5h-134l11 71l2 11l3 20h134q153 0 249.5 80t115.5 203q20 134 -43.5 214t-213.5 80q-135 0 -242.5 -84.5t-126.5 -215.5h-111l-2 6q22 177 163.5 286.5t334.5 109.5 q187 0 287.5 -106t73.5 -294q-18 -113 -93 -200t-192 -129q118 -41 173 -132t36 -221q-30 -202 -168 -309t-337 -107q-179 0 -308 110t-96 300z" />
<glyph unicode="4" horiz-adv-x="1135" d="M47 368l10 68l810 1020h131l-148 -987h228l-15 -101h-228l-55 -368h-119l55 368h-669zM208 474l3 -5h520l124 828l-6 2l-66 -107z" />
<glyph unicode="5" horiz-adv-x="1135" d="M147 378l2 5h109q-23 -153 48 -228t212 -75q156 0 254.5 99t126.5 283q25 169 -40.5 262t-212.5 93q-134 0 -217.5 -45.5t-128.5 -133.5l-95 17l200 801h708l-16 -111h-605l-133 -524q63 49 133.5 77t182.5 31q187 3 282 -123t63 -342q-35 -229 -163.5 -357t-353.5 -128 q-174 0 -281.5 101.5t-74.5 297.5z" />
<glyph unicode="6" horiz-adv-x="1135" d="M155 531l59 394q37 251 194 401.5t360 150.5q78 0 157 -17.5t134 -48.5l-46 -98q-55 31 -115.5 46.5t-145.5 15.5q-147 0 -268 -123t-150 -316l-29 -196q71 83 173.5 132t218.5 49q186 0 278.5 -127.5t60.5 -339.5q-33 -221 -172.5 -348t-339.5 -127q-188 0 -297.5 150.5 t-71.5 401.5zM272 522q-32 -209 44 -325.5t223 -116.5q142 0 247.5 107t129.5 267q27 182 -39.5 275.5t-227.5 93.5q-114 0 -216 -65t-150 -164z" />
<glyph unicode="7" horiz-adv-x="1135" d="M214 1354l15 102h947l-15 -102q-287 -286 -454 -572.5t-219 -637.5l-22 -144h-120l22 144q53 361 222.5 646t446.5 564h-823z" />
<glyph unicode="8" horiz-adv-x="1135" d="M79 394q19 133 115.5 228t239.5 134q-111 41 -169 129.5t-40 204.5q28 194 163.5 290.5t330.5 96.5q175 0 281.5 -101.5t79.5 -285.5q-19 -123 -100 -211t-200 -126q121 -43 187.5 -138.5t48.5 -220.5q-31 -205 -175.5 -310t-344.5 -105q-203 0 -325 110t-92 305z M198 393q-23 -149 66 -231t247 -82q138 0 251 86t134 227q21 142 -64 226.5t-229 84.5q-148 0 -266.5 -87.5t-138.5 -223.5zM344 1091q-21 -134 58 -210t218 -76q121 0 221 79.5t119 206.5q19 130 -55.5 207t-201.5 77q-132 0 -236 -77t-123 -207z" />
<glyph unicode="9" horiz-adv-x="1135" d="M144 42l37 97q62 -32 123 -45.5t146 -13.5q154 0 268 107t142 295l31 207q-66 -88 -161 -134t-203 -46q-191 0 -294 133t-72 341q33 221 177.5 357.5t335.5 136.5q199 0 308.5 -136t73.5 -383l-71 -474q-38 -246 -187 -375.5t-363 -129.5q-73 0 -149 16t-142 47zM285 983 q-25 -166 43 -269.5t215 -103.5q124 0 222 66.5t149 161.5l20 133q30 202 -44 303t-227 101q-135 0 -244.5 -114t-133.5 -278z" />
<glyph unicode=":" horiz-adv-x="434" d="M87 0l25 164h137l-25 -164h-137zM218 876l25 164h137l-25 -164h-137z" />
<glyph unicode=";" horiz-adv-x="438" d="M15 -258l111 279l25 167h119l-25 -170l-148 -276h-82zM219 876l25 164h137l-25 -164h-137z" />
<glyph unicode="&#x3c;" horiz-adv-x="1047" d="M72 501l11 71l4 26l883 378l-18 -126l-655 -272l-113 -28v-6l103 -28l574 -268l-19 -126z" />
<glyph unicode="=" horiz-adv-x="1147" d="M132 422l16 106h834l-16 -106h-834zM194 833l16 106h834l-16 -106h-834z" />
<glyph unicode="&#x3e;" horiz-adv-x="1061" d="M61 113l19 124l673 274l112 27l1 6l-104 29l-591 271l18 123l788 -378l-4 -24h1l-7 -48l-4 -25z" />
<glyph unicode="?" horiz-adv-x="930" d="M169 1122q23 165 144 260t287 95q173 0 262 -102t63 -272q-21 -141 -100.5 -241t-222.5 -217q-70 -54 -91 -100t-34 -141h-119q20 131 49 182.5t134 136.5q125 112 185.5 187.5t78.5 191.5q20 133 -37 200.5t-184 67.5q-113 0 -198 -69t-104 -185h-111zM293 0l23 154h139 l-23 -154h-139z" />
<glyph unicode="@" horiz-adv-x="1870" d="M114 478q82 424 354.5 683t648.5 259t543.5 -244.5t87.5 -662.5q-43 -217 -174 -375.5t-336 -158.5q-75 0 -121 51.5t-49 141.5q-68 -96 -153.5 -144.5t-187.5 -48.5q-126 0 -178 121t-5 316q61 254 202.5 407.5t309.5 153.5q90 0 145.5 -27.5t114.5 -80.5l-3 -2h4 l-136 -574q-30 -132 3 -180t88 -48q136 0 240.5 126t144.5 322q77 389 -59 604.5t-498 215.5q-311 0 -562.5 -237.5t-325.5 -617.5q-76 -379 71 -612.5t485 -233.5q84 0 179.5 22t162.5 57l19 -75q-70 -41 -176.5 -65t-201.5 -24q-366 0 -542.5 252t-94.5 679zM643.5 169 q28.5 -92 124.5 -92q83 0 161 44t148 157l3 15l129 544q-29 23 -66.5 36t-84.5 13q-129 0 -238 -120t-166 -350q-39 -155 -10.5 -247z" />
<glyph unicode="A" horiz-adv-x="1256" d="M-42 0l753 1456h113l313 -1456h-124l-85 406h-638l-208 -406h-124zM345 513h561l-160 771l-6 1z" />
<glyph unicode="B" horiz-adv-x="1263" d="M106 0l218 1456h425q218 0 335 -96q94 -78 94 -217q0 -33 -5 -70q-17 -114 -89.5 -194t-181.5 -113q135 -16 206 -120q55 -81 55 -182q0 -28 -4 -59q-31 -202 -171 -303.5t-355 -101.5h-527zM241 101h407q155 0 262 80.5t128 221.5q4 28 4 54q0 99 -61 161 q-77 79 -231 84h-16h-403zM346 803h350q146 3 241.5 73t116.5 201q4 29 4 56q0 101 -64 154q-81 67 -260 67h-305z" />
<glyph unicode="C" horiz-adv-x="1313" d="M143 609l36 237q43 288 216.5 459.5t419.5 171.5q228 0 356 -126q99 -98 100 -250q0 -44 -9 -93l-3 -6h-112q7 42 7 80q0 124 -72 198q-92 96 -283 95q-183 0 -325 -149t-176 -378l-36 -239q-10 -68 -10 -127q0 -154 67 -258q93 -144 286 -144q182 0 307 97t153 278h111 l2 -6q-29 -223 -189.5 -346.5t-398.5 -123.5q-234 0 -362 177q-96 133 -95 322q0 63 10 131z" />
<glyph unicode="D" horiz-adv-x="1378" d="M106 0l218 1456h444q258 0 410 -180q120 -142 120 -343q0 -54 -9 -112l-28 -187q-44 -290 -242 -462t-469 -172h-444zM241 101h324q208 0 374.5 152t201.5 381l29 190q8 54 8 102q0 168 -90 282q-116 146 -335 146h-325z" />
<glyph unicode="E" horiz-adv-x="1129" d="M106 0l218 1456h870l-15 -102h-750l-82 -547h653l-15 -102h-654l-90 -604h755l-15 -101h-875z" />
<glyph unicode="F" horiz-adv-x="1128" d="M106 0l218 1456h891l-15 -102h-772l-85 -569h670l-16 -103h-669l-102 -682h-120z" />
<glyph unicode="G" horiz-adv-x="1410" d="M156 600l40 267q42 280 220.5 445t427.5 165q228 0 352 -126q99 -100 99 -240q0 -37 -7 -77l-2 -6h-111q5 33 5 64q0 112 -70 188q-89 95 -282 95q-189 0 -334.5 -143.5t-177.5 -362.5l-40 -269q-9 -61 -9 -116q0 -158 76 -262q103 -142 306 -142q147 0 254 47t154 106 l56 373h-392l15 102h511l-77 -512q-60 -79 -199.5 -148t-336.5 -69q-241 0 -380 175q-107 134 -107 327q0 57 9 119z" />
<glyph unicode="H" horiz-adv-x="1439" d="M106 0l218 1456h120l-103 -684h827l103 684h120l-218 -1456h-120l100 670h-827l-100 -670h-120z" />
<glyph unicode="I" horiz-adv-x="554" d="M137 0l218 1456h120l-218 -1456h-120z" />
<glyph unicode="J" horiz-adv-x="1122" d="M65 396l2 5h113q-7 -47 -7 -86q0 -105 49 -159q69 -76 225 -76q128 0 230.5 93.5t125.5 248.5l155 1034h120l-155 -1034q-32 -211 -166 -327t-325 -116q-193 0 -298 107q-78 81 -78 215q0 44 9 95z" />
<glyph unicode="K" horiz-adv-x="1198" d="M88 0l218 1456h120l-99 -659h174l618 659h148l3 -6l-683 -716l498 -734h-140l-465 691h-169l-103 -691h-120z" />
<glyph unicode="L" horiz-adv-x="1128" d="M106 0l218 1456h120l-203 -1355h752l-15 -101h-872z" />
<glyph unicode="M" horiz-adv-x="1766" d="M106 0l218 1456h160l348 -1281l6 -1l734 1282h146l-218 -1456h-120l183 1222l-6 2l-705 -1224h-86l-346 1254h-6l-188 -1254h-120z" />
<glyph unicode="N" horiz-adv-x="1445" d="M106 0l218 1456h120l641 -1243l5 1l187 1242h120l-218 -1456h-120l-641 1246l-5 -1l-187 -1245h-120z" />
<glyph unicode="O" horiz-adv-x="1378" d="M135 609l36 237q44 292 220 461.5t435 169.5q250 -1 383 -177q102 -135 101 -329q0 -60 -9 -125l-36 -237q-44 -293 -222 -461.5t-441 -168.5q-246 -1 -378 175q-100 133 -99 326q0 61 10 129zM255 609q-11 -71 -11 -133q0 -154 68 -254q94 -140 305 -139 q205 0 349.5 145t179.5 381l36 239q10 67 10 127q0 157 -70 257q-98 140 -312 140q-200 0 -342 -145.5t-177 -378.5z" />
<glyph unicode="P" horiz-adv-x="1263" d="M106 0l218 1456h502q219 0 332 -118q91 -95 91 -235q0 -35 -6 -72q-31 -201 -171.5 -313.5t-372.5 -112.5h-383l-90 -605h-120zM332 707h382q172 0 279.5 93t128.5 229q5 33 5 63q-1 103 -59 172q-76 90 -257 90h-382z" />
<glyph unicode="Q" horiz-adv-x="1393" d="M135 609l36 237q44 292 220 461.5t435 169.5q250 0 383 -177q102 -134 102 -329q0 -59 -10 -125l-36 -237q-21 -138 -73 -250.5t-131 -193.5l195 -223l-95 -80l-198 222q-78 -52 -169 -78.5t-192 -26.5q-246 0 -378 175q-99 134 -99 326q0 61 10 129zM255 609 q-11 -71 -11 -133q0 -154 68 -254q94 -139 305 -139q205 0 349.5 145t179.5 381l36 239q10 67 10 127q0 156 -70 257q-98 140 -312 140q-200 0 -342 -145.5t-177 -378.5z" />
<glyph unicode="R" horiz-adv-x="1336" d="M103 0l218 1455h485q225 1 339 -103q91 -83 91 -224q0 -36 -6 -75q-19 -121 -99 -211t-210 -131q127 -35 175 -123q35 -64 36 -150q0 -32 -5 -67l-21 -137q-6 -41 -6 -75q0 -25 3 -48q8 -53 41 -87l-4 -24h-122q-30 36 -36 101q-2 23 -2 47q0 43 6 88l20 133q4 30 4 57 q0 99 -58 157q-74 75 -230 75h-401l-98 -658h-120zM337 760h351q189 0 296 81t127 213q5 33 5 62q0 104 -61 162q-78 75 -264 75h-365z" />
<glyph unicode="S" horiz-adv-x="1232" d="M134 412l2 6h111q-5 -36 -5 -68q0 -131 93 -193q116 -77 289 -77q144 0 254.5 69t126.5 168q4 26 4 50q1 97 -61 157q-76 76 -296 152q-232 77 -336 175q-82 77 -83 210q0 36 6 75q24 160 159 250.5t328 90.5q220 -1 345 -117q98 -92 98 -235q0 -39 -7 -82l-2 -6h-112 q4 29 4 56q0 113 -75 189q-93 94 -267 93q-139 0 -238 -70t-113 -167q-5 -30 -5 -58q0 -92 55 -149q71 -74 295 -151q232 -78 340 -179q86 -81 87 -213q0 -33 -6 -69q-25 -165 -167 -252.5t-349 -87.5q-217 -1 -365 105q-118 84 -118 241q0 41 8 87z" />
<glyph unicode="T" horiz-adv-x="1224" d="M171 1354l15 102h1128l-15 -102h-497l-202 -1354h-119l202 1354h-512z" />
<glyph unicode="U" horiz-adv-x="1374" d="M160 489l145 967h120l-145 -967q-7 -47 -7 -89q-1 -132 71 -214q94 -106 272 -106q171 0 305 111t162 298l145 967h119l-145 -967q-37 -249 -201.5 -379.5t-399.5 -130.5q-219 1 -348 137q-101 107 -101 274q0 47 8 99z" />
<glyph unicode="V" horiz-adv-x="1256" d="M167 1456h130l257 -1201l14 -101l5 -1l45 102l618 1201h129l-760 -1456h-114z" />
<glyph unicode="W" horiz-adv-x="1813" d="M188 1456h130l105 -1038l9 -235l6 -1l87 236l459 1038h121l150 -1038l14 -236l6 -1l83 237l412 1038h130l-591 -1456h-114l-161 1117l-13 156l-6 1l-57 -157l-501 -1117h-114z" />
<glyph unicode="X" horiz-adv-x="1256" d="M-17 5l607 733l-378 718h145l316 -622l504 622h138l3 -5l-587 -713l389 -738h-143l-331 642l-522 -642h-138z" />
<glyph unicode="Y" horiz-adv-x="1256" d="M176 1456h139l328 -809l571 809h139l-669 -923l-80 -533h-119l80 536z" />
<glyph unicode="Z" horiz-adv-x="1121" d="M22 0l2 92l916 1262h-746l15 102h894l-13 -87l-920 -1268h824l-15 -101h-957z" />
<glyph unicode="[" horiz-adv-x="491" d="M44 -312l277 1976h330l-14 -102h-210l-248 -1772h210l-15 -102h-330z" />
<glyph unicode="\" horiz-adv-x="807" d="M186 1456h117l371 -1581h-117z" />
<glyph unicode="]" horiz-adv-x="491" d="M-119 -312l15 102h211l248 1772h-211l14 102h331l-277 -1976h-331z" />
<glyph unicode="^" horiz-adv-x="852" d="M106 729l408 727h90l189 -727h-116l-123 484l-14 106l-6 1l-46 -107l-266 -484h-116z" />
<glyph unicode="_" horiz-adv-x="884" d="M-94 -101l15 101h881l-15 -101h-881z" />
<glyph unicode="`" horiz-adv-x="585" d="M226 1518h161l164 -266h-117z" />
<glyph unicode="a" horiz-adv-x="1101" d="M62 293q22 151 161.5 238t344.5 87h266l20 134q4 26 4 49q0 85 -50 135q-62 64 -198 64q-118 0 -205 -60.5t-101 -150.5h-110l-2 6q13 126 136.5 216.5t302.5 90.5q171 0 269 -92q78 -73 78 -195q0 -31 -5 -65l-80 -532q-9 -59 -11 -112v-21q0 -42 6 -85h-125 q-2 62 -2 101t6 80q-69 -87 -178.5 -144.5t-239.5 -57.5q-153 -1 -231 85q-61 67 -61 169q0 29 5 60zM181 289q-3 -20 -3 -39q0 -68 40 -110q52 -54 160 -55q132 0 245 66t165 167l32 208h-267q-140 0 -248.5 -70t-123.5 -167z" />
<glyph unicode="b" d="M78 0l234 1560h120l-97 -644q67 89 158.5 137.5t206.5 48.5q188 0 278 -157q64 -111 63 -270q0 -67 -11 -143l-3 -21q-38 -252 -167.5 -392t-325.5 -140q-114 0 -194 48.5t-122 138.5l-46 -166h-94zM241 284q27 -93 96.5 -147t188.5 -54q150 0 250 117.5t130 310.5l3 21 q11 74 11 138q0 120 -40 202q-60 126 -218 126q-119 0 -206 -62t-141 -158z" />
<glyph unicode="c" horiz-adv-x="1054" d="M95 520l6 42q36 244 177.5 392t359.5 148q168 0 271 -106q80 -83 80 -204q0 -34 -6 -72l-2 -5h-108q4 29 4 56q-1 96 -57 154q-72 75 -197 75q-163 0 -268.5 -127t-133.5 -311l-6 -42q-10 -63 -9 -118q0 -118 43 -200q64 -122 237 -122q111 0 211.5 68.5t119.5 188.5h106 l2 -6q-20 -157 -155.5 -254.5t-298.5 -97.5q-208 -1 -310 153q-75 113 -75 271q0 56 9 117z" />
<glyph unicode="d" d="M108 511l3 21q40 269 171 419.5t329 150.5q108 0 185 -48.5t121 -137.5l96 644h120l-234 -1560h-98l7 157q-67 -86 -159.5 -132t-207.5 -46q-187 1 -279 147q-65 104 -65 255q0 61 11 130zM228 511q-10 -68 -11 -127q0 -114 41 -188q61 -112 220 -113q111 0 198 53 t145 144l77 509q-27 93 -93.5 151t-186.5 58q-152 0 -254.5 -131.5t-132.5 -334.5z" />
<glyph unicode="e" horiz-adv-x="1054" d="M93 509l9 55q35 243 188.5 390.5t352.5 147.5q189 0 281 -128q68 -96 69 -238q0 -48 -8 -101l-14 -93h-753l-5 -33q-8 -53 -8 -101q1 -124 55 -210q76 -118 241 -118q95 0 185.5 33t152.5 87l39 -82q-66 -60 -164.5 -99.5t-227.5 -39.5q-202 0 -315 150q-86 115 -86 276 q0 50 8 104zM245 650l2 -6h620l3 25q6 39 6 75q0 98 -45 165q-61 91 -203 91q-132 0 -238 -100t-145 -250z" />
<glyph unicode="f" horiz-adv-x="658" d="M129 984l14 98h179l24 158q25 169 119 255t243 86q31 0 65 -5t68 -14l-31 -99q-22 6 -47 9.5t-59 3.5q-94 0 -157.5 -62.5t-80.5 -173.5l-24 -158h245l-14 -98h-245l-148 -984h-120l147 984h-178z" />
<glyph unicode="g" d="M91 -366l38 101q61 -32 132 -48.5t155 -16.5q154 0 248 83t118 241l23 153q-67 -81 -158 -124.5t-202 -43.5q-186 0 -278 147q-66 104 -66 256q0 60 11 129l3 21q40 269 171 419.5t329 150.5q111 0 189.5 -51t120.5 -144l44 175h97l-163 -1088q-33 -215 -162 -323 t-340 -108q-76 0 -162.5 19t-147.5 52zM232 511q-10 -68 -10 -125q0 -115 40 -190q62 -113 221 -113q110 0 196.5 52.5t145.5 142.5l77 514q-27 91 -93.5 148.5t-185.5 57.5q-152 0 -255 -131.5t-133 -334.5z" />
<glyph unicode="h" d="M78 0l234 1560h120l-99 -655q69 95 166.5 146t217.5 51q165 0 243 -107q55 -75 56 -207q0 -55 -10 -121l-100 -667h-120l100 669q9 59 9 107q-1 100 -39 149q-56 73 -181 73q-123 0 -215 -64t-148 -170l-114 -764h-120z" />
<glyph unicode="i" horiz-adv-x="465" d="M93 0l162 1082h119l-162 -1082h-119zM302 1392l25 168h119l-25 -168h-119z" />
<glyph unicode="j" horiz-adv-x="484" d="M-258 -418l28 101q15 -5 42.5 -10t48.5 -5q86 0 146.5 62t79.5 181l175 1171h119l-175 -1171q-27 -173 -118.5 -260.5t-236.5 -87.5q-29 0 -55 5t-54 14zM303 1396l25 164h119l-25 -164h-119z" />
<glyph unicode="k" horiz-adv-x="1006" d="M79 0l234 1560h120l-140 -930h115l482 452h139l2 -6l-517 -490l396 -586h-144l-362 527h-126l-79 -527h-120z" />
<glyph unicode="l" horiz-adv-x="465" d="M93 0l234 1560h119l-234 -1560h-119z" />
<glyph unicode="m" horiz-adv-x="1815" d="M74 0l162 1082h106l-15 -171q65 92 159 141.5t214 49.5q118 0 193 -59t95 -180q65 113 165.5 176t230.5 63q167 0 247 -116q56 -81 56 -221q0 -61 -11 -134l-95 -631h-120l95 633q11 73 11 130q1 107 -37 157q-58 78 -186 78q-132 0 -222 -86t-131 -219l-6 -44l-97 -649 h-121l95 633q10 70 10 125q0 106 -38 160q-58 80 -185 80q-123 0 -208 -66t-134 -176l-113 -756h-120z" />
<glyph unicode="n" d="M78 0l162 1082h106l-16 -181q67 97 162.5 149t217.5 52q170 0 249 -108q55 -76 55 -210q0 -57 -10 -125l-99 -659h-120l99 658q9 64 9 115q1 103 -37 151q-56 74 -188 74q-124 0 -213.5 -65.5t-142.5 -173.5l-114 -759h-120z" />
<glyph unicode="o" d="M90 524l5 33q36 248 188 396.5t371 148.5q208 0 320 -154q86 -118 87 -284q0 -51 -9 -107l-5 -33q-38 -249 -189.5 -397t-369.5 -148q-210 0 -322 154q-85 117 -85 281q0 53 9 110zM210 524q-9 -55 -9 -105q1 -125 55 -215q76 -124 247 -124q160 0 278 129.5t147 314.5 l5 33q8 51 8 98q-1 127 -57 219q-76 126 -245 126q-161 0 -279 -130.5t-145 -312.5z" />
<glyph unicode="p" d="M16 -416l224 1498h92l-3 -169q68 91 161 140t209 49q188 0 278 -157q63 -110 63 -270q0 -67 -11 -143l-3 -21q-38 -252 -167.5 -392t-325.5 -140q-110 0 -189.5 44.5t-123.5 125.5l-84 -565h-120zM238 269q29 -88 98.5 -138.5t184.5 -50.5q151 0 253 119.5t132 311.5 l3 21q11 72 11 134q0 122 -42 206q-62 126 -221 126q-116 0 -201.5 -59t-139.5 -151z" />
<glyph unicode="q" d="M108 511l3 21q40 269 171 419.5t329 150.5q108 0 185 -48.5t120 -136.5l44 165h96l-224 -1498h-120l83 557q-66 -78 -155.5 -120t-198.5 -42q-187 0 -279 147q-65 104 -65 255q0 61 11 130zM228 511q-10 -68 -10 -127q0 -114 40 -190q61 -114 220 -114q108 0 193 51 t143 138l80 533q-28 88 -94 143t-182 55q-152 0 -254.5 -132t-132.5 -336z" />
<glyph unicode="r" horiz-adv-x="699" d="M78 0l162 1082h105l-12 -180l-1 -6q61 98 148 152t197 54q21 0 41.5 -3.5t32.5 -7.5l-32 -112l-84 6q-109 0 -193 -66t-133 -179l-111 -740h-120z" />
<glyph unicode="s" horiz-adv-x="1043" d="M77 297l2 6h110q-1 -12 -1 -23q0 -100 74 -147q82 -53 200 -53q124 0 210 58.5t98 138.5q2 12 2 24q0 63 -46 110q-54 55 -213 91q-186 40 -270 110q-69 57 -69 152q0 20 3 42q18 129 133 212.5t289 83.5q175 0 273 -92q80 -75 79 -176q0 -24 -4 -49l-2 -6h-112 q2 15 2 29q1 74 -55 128q-66 64 -195 64q-125 0 -202 -58t-87 -132q-2 -13 -2 -25q0 -60 41 -99q49 -47 214 -84q184 -42 271 -117q73 -63 73 -162q0 -19 -3 -40q-21 -140 -140.5 -222t-301.5 -82q-189 0 -292 95q-84 77 -84 176q0 23 5 47z" />
<glyph unicode="t" horiz-adv-x="659" d="M105 984l14 98h187l42 277h121l-42 -277h238l-14 -98h-239l-105 -705q-6 -39 -6 -69q0 -57 21 -84q32 -42 97 -42q21 0 43.5 3t48.5 8l5 -89q-27 -13 -63 -20t-71 -7q-110 1 -165 73q-38 50 -38 140q0 39 7 87l105 705h-186z" />
<glyph unicode="u" d="M142 455l94 627h120l-94 -629q-12 -77 -12 -136q0 -100 34 -152q54 -82 181 -82q132 0 223.5 63t141.5 171l114 765h120l-162 -1082h-106l16 171q-66 -93 -161 -142.5t-215 -49.5q-166 0 -248 117q-57 81 -57 223q0 62 11 136z" />
<glyph unicode="v" horiz-adv-x="1002" d="M126 1082h124l177 -811l17 -126l5 -1l57 127l415 811h124l-573 -1082h-96z" />
<glyph unicode="w" horiz-adv-x="1550" d="M147 1082h128l89 -731l12 -197l6 -1l80 198l339 731h103l121 -731l20 -204l6 -1l77 205l302 731h128l-477 -1082h-102l-134 740l-17 174l-6 1l-69 -175l-351 -740h-103z" />
<glyph unicode="x" horiz-adv-x="1002" d="M-25 5l461 546l-288 531h141l225 -442l359 442h135l2 -5l-441 -526l299 -551h-140l-239 461l-377 -461h-135z" />
<glyph unicode="y" horiz-adv-x="1002" d="M-43 -423l29 100q12 -2 38 -4.5t38 -2.5q75 0 132.5 57t101.5 141l79 146l-258 1068h133l179 -789l19 -129l6 -1l464 919h134l-658 -1255q-59 -110 -137.5 -187t-207.5 -77q-20 0 -49 4.5t-43 9.5z" />
<glyph unicode="z" horiz-adv-x="1002" d="M10 0l13 88l781 886l-2 5h-625l15 103h783l-13 -89l-784 -887l2 -5h696l-15 -101h-851z" />
<glyph unicode="{" horiz-adv-x="676" d="M69 543l3 23l8 58l4 23q114 0 182 68t85 189l31 228q24 177 118 293.5t286 171.5l15 -79q-133 -41 -206 -141.5t-93 -244.5l-31 -228q-17 -115 -73.5 -195t-155.5 -116q85 -39 120.5 -121t21.5 -188l-32 -226q-21 -147 24.5 -243t169.5 -139l-41 -80q-175 55 -236 173.5 t-37 288.5l32 226q17 127 -29.5 193t-165.5 66z" />
<glyph unicode="|" horiz-adv-x="452" d="M44 -270l258 1726h120l-258 -1726h-120z" />
<glyph unicode="}" horiz-adv-x="676" d="M-111 -324q133 42 206.5 141t93.5 241l32 226q16 117 74.5 197t163.5 115q-91 35 -129 116.5t-22 191.5l31 228q21 149 -23 246.5t-166 139.5l37 79q175 -55 235.5 -174.5t36.5 -290.5l-31 -228q-18 -127 28.5 -192t166.5 -65l-11 -77l-4 -27q-114 0 -182.5 -69.5 t-84.5 -189.5l-32 -226q-25 -176 -118 -291.5t-285 -170.5z" />
<glyph unicode="~" horiz-adv-x="1402" d="M134 474q19 137 110 225t215 88q83 0 154 -38t148 -112q56 -57 105.5 -82.5t106.5 -25.5q74 0 138.5 64.5t78.5 161.5l96 -15q-20 -134 -113 -225.5t-215 -91.5q-85 0 -154.5 36.5t-145.5 113.5q-56 54 -107 80.5t-107 26.5q-76 0 -139 -61t-76 -160z" />
<glyph unicode="&#xa1;" horiz-adv-x="452" d="M20 -374l147 978h120l-147 -978h-120zM200 898l27 184h142l-27 -184h-142z" />
<glyph unicode="&#xa2;" horiz-adv-x="1115" d="M95 520l6 42q35 234 166.5 380t334.5 159l33 217h120l-34 -224q136 -27 212.5 -128t54.5 -251h-115q20 135 -52.5 210t-197.5 75q-163 0 -268.5 -127t-133.5 -311l-6 -42q-30 -197 34 -318.5t237 -121.5q111 0 211.5 68.5t119.5 188.5h107l2 -6q-18 -135 -124.5 -228.5 t-247.5 -116.5l-34 -231h-120l34 226q-190 15 -281.5 165.5t-57.5 373.5z" />
<glyph unicode="&#xa3;" horiz-adv-x="1170" d="M51 0l15 101h10q72 15 124.5 130t70.5 235l19 176h-207l16 102h203l33 296q32 212 154 324.5t302 112.5q179 0 261.5 -104.5t53.5 -277.5l-3 -5h-113q22 154 -35.5 219.5t-179.5 65.5q-120 0 -208.5 -89t-111.5 -246l-34 -296h451l-16 -102h-446l-20 -176 q-17 -112 -56 -207t-95 -158h768l-15 -101h-941z" />
<glyph unicode="&#xa4;" horiz-adv-x="1481" d="M38 60l186 164q-49 80 -67.5 178t-1.5 206q17 116 66 218t124 183l-139 168l98 87l138 -167q88 66 191 101.5t212 35.5q102 0 193.5 -38t161.5 -107l199 176l73 -88l-201 -178q50 -82 70 -181.5t4 -209.5q-17 -111 -62.5 -209.5t-113.5 -177.5l135 -161l-99 -87l-131 157 q-91 -72 -198 -111t-219 -39q-107 0 -201.5 40.5t-163.5 114.5l-182 -161zM268 608q-34 -223 85 -370t321 -147q190 0 358 152.5t200 364.5q33 221 -85.5 367.5t-318.5 146.5q-192 0 -360.5 -152t-199.5 -362z" />
<glyph unicode="&#xa5;" horiz-adv-x="1223" d="M99 326l13 86h416l31 206h-416l13 87h370l-343 751h139l315 -722l532 722h139l-567 -751h371l-13 -87h-421l-31 -206h421l-13 -86h-421l-49 -326h-119l49 326h-416z" />
<glyph unicode="&#xa6;" horiz-adv-x="444" d="M39 -270l115 771h120l-115 -771h-120zM184 698l113 758h120l-113 -758h-120z" />
<glyph unicode="&#xa7;" horiz-adv-x="1239" d="M18 -69l2 5l113 2q-28 -180 72 -255.5t262 -75.5q156 0 262.5 71.5t123.5 180.5q16 110 -50.5 168t-275.5 119q-234 61 -338 149.5t-78 255.5q14 101 82.5 171.5t179.5 102.5q-81 49 -114.5 120t-17.5 175q25 167 166.5 262t358.5 95q214 0 325.5 -113t77.5 -312l-3 -6 h-112q21 146 -58 237.5t-246 91.5q-166 0 -269.5 -72t-119.5 -180q-18 -117 46.5 -174t282.5 -121q238 -65 338 -148.5t76 -248.5q-16 -102 -87 -171.5t-185 -101.5q86 -49 122 -119.5t20 -177.5q-26 -172 -165.5 -264t-356.5 -92q-206 0 -338.5 103.5t-95.5 322.5zM231 553 q-18 -121 50.5 -177t306.5 -125q33 -10 62 -19t57 -18q113 14 188 72.5t88 141.5q16 111 -58 171.5t-300 129.5q-37 9 -71 19.5t-64 22.5q-111 -14 -178.5 -73.5t-80.5 -144.5z" />
<glyph unicode="&#xa8;" horiz-adv-x="959" d="M269 1299l22 157h174l-22 -157h-174zM739 1299l22 157h173l-22 -157h-173z" />
<glyph unicode="&#xa9;" horiz-adv-x="1637" d="M136 729q49 327 285.5 537t536.5 210q283 0 463.5 -218t133.5 -529q-49 -328 -286 -539t-535 -211q-284 0 -464.5 218.5t-133.5 531.5zM221 729q-43 -290 110 -477t416 -187q248 0 464.5 194t258.5 470q43 288 -110.5 474t-414.5 186q-250 0 -466.5 -193t-257.5 -467z M494 669l18 119q26 179 132 283t259 104q141 0 215 -80t48 -228l-2 -5h-92q17 117 -28.5 170t-153.5 53q-106 0 -183 -84.5t-96 -211.5l-18 -120q-20 -137 29 -217t161 -80q103 0 167 54.5t81 169.5h90l3 -6q-20 -156 -113 -232t-242 -76q-145 0 -223 107.5t-52 279.5z" />
<glyph unicode="&#xaa;" horiz-adv-x="906" d="M193 920q16 109 102.5 165t238.5 56h181l10 61q13 88 -20.5 133t-113.5 45q-89 0 -147 -38t-68 -108l-96 9l-2 6q10 102 100.5 165t227.5 63q119 0 183.5 -72t44.5 -204l-47 -314q-8 -50 -8 -93t7 -88h-111q-5 24 -6.5 51t0.5 56q-45 -53 -112 -87t-149 -34 q-114 0 -172.5 62t-42.5 166zM302 924q-11 -68 23 -102.5t117 -34.5q67 0 138.5 38t100.5 84l22 148h-180q-92 0 -153 -39t-68 -94z" />
<glyph unicode="&#xab;" horiz-adv-x="933" d="M94 511l1 6l1 7l1 6l352 379h98l2 -5l-330 -384l218 -388h-105zM429 511l1 6l1 7l1 6l352 379h98l2 -5l-330 -384l218 -388h-105z" />
<glyph unicode="&#xac;" horiz-adv-x="1117" d="M145 670l15 106h812l-15 -106h-1l-42 -284h-120l42 284h-691z" />
<glyph unicode="&#xad;" horiz-adv-x="860" d="M136 570l15 101h590l-15 -101h-590z" />
<glyph unicode="&#xae;" horiz-adv-x="1642" d="M131 729q49 327 285.5 537t536.5 210q284 0 464.5 -218t133.5 -529q-49 -328 -286 -539t-536 -211q-284 0 -464.5 218.5t-133.5 531.5zM216 729q-43 -290 110.5 -477t415.5 -187q248 0 464.5 194t258.5 470q43 288 -110 474t-415 186q-250 0 -466.5 -193t-257.5 -467z M519 316l128 850h258q141 0 213 -63.5t55 -184.5q-12 -71 -55.5 -120t-117.5 -78q63 -26 86.5 -79.5t12.5 -125.5l-8 -56q-7 -41 -7.5 -73.5t5.5 -53.5l-3 -16h-102q-6 21 -2.5 59t10.5 85l8 54q13 87 -18.5 122.5t-122.5 35.5h-189l-53 -356h-98zM684 763h181 q79 0 138.5 40.5t70.5 112.5q13 88 -27 123.5t-156 35.5h-160z" />
<glyph unicode="&#xaf;" horiz-adv-x="874" d="M221 1359l14 97h670l-14 -97h-670z" />
<glyph unicode="&#xb0;" horiz-adv-x="774" d="M247 1227q16 106 98.5 178t184.5 72q95 0 156.5 -74.5t47.5 -175.5q-17 -108 -97.5 -177.5t-181.5 -69.5q-98 0 -161 72.5t-47 174.5zM337 1227q-11 -70 27 -113t105 -43q63 0 114 44.5t61 111.5q10 71 -26 115t-102 44q-64 0 -116.5 -46t-62.5 -113z" />
<glyph unicode="&#xb1;" horiz-adv-x="1086" d="M66 42l15 102h835l-15 -102h-835zM112 728l14 101h413l62 438h110l-62 -438h393l-14 -101h-393l-61 -439h-110l61 439h-413z" />
<glyph unicode="&#xb2;" horiz-adv-x="835" d="M138 667l14 90l357 282q87 71 120.5 115.5t41.5 91.5q10 67 -23.5 104.5t-112.5 37.5q-84 0 -139 -42.5t-64 -107.5h-99l-2 6q9 101 97 168t221 67q119 0 183 -61.5t48 -172.5q-12 -78 -65.5 -135.5t-175.5 -158.5l-242 -188l2 -6h422l-14 -90h-569z" />
<glyph unicode="&#xb3;" horiz-adv-x="852" d="M172 882l2 6h102q-10 -65 35 -104t130 -39q87 0 144.5 38t67.5 103q11 77 -29.5 110.5t-134.5 33.5h-122l3 23l3 21l3 20l4 25h122q85 0 134 35.5t59 98.5q9 61 -30 97.5t-128 36.5q-72 0 -128.5 -36t-64.5 -93h-98l-2 6q9 98 97.5 156t209.5 58q127 0 197.5 -59 t54.5 -166q-10 -61 -52 -107.5t-109 -70.5q67 -23 98.5 -71t21.5 -118q-17 -113 -108.5 -172t-226.5 -59q-117 0 -196.5 58.5t-58.5 168.5z" />
<glyph unicode="&#xb4;" horiz-adv-x="576" d="M227 1257l239 261h147l2 -6l-286 -260h-100z" />
<glyph unicode="&#xb5;" d="M20 -416l224 1498h119l-99 -661q-25 -199 33.5 -270t178.5 -71q134 0 219.5 63t132.5 179l113 760h120l-162 -1082h-103l12 151q-60 -84 -144.5 -128t-194.5 -44q-85 0 -150.5 30.5t-101.5 98.5l-78 -524h-119z" />
<glyph unicode="&#xb6;" horiz-adv-x="973" d="M150 988q32 214 179.5 341t382.5 127h226l-218 -1456h-120l78 520h-106q-224 0 -338.5 131t-83.5 337z" />
<glyph unicode="&#xb7;" horiz-adv-x="503" d="M180 624l27 180h155l-27 -180h-155z" />
<glyph unicode="&#xb8;" horiz-adv-x="498" d="M-40 -435l4 78q87 0 154.5 30.5t76.5 89.5t-28 80.5t-142 29.5l48 127h93l-22 -64q78 -9 120 -48.5t31 -122.5q-15 -95 -101 -147.5t-234 -52.5z" />
<glyph unicode="&#xb9;" horiz-adv-x="511" d="M212 1361l14 93l261 23l-122 -812h-109l105 703z" />
<glyph unicode="&#xba;" horiz-adv-x="922" d="M209 1025l17 117q23 153 123.5 244t250.5 91q142 0 218.5 -94.5t54.5 -240.5l-17 -117q-24 -155 -124 -244.5t-248 -89.5q-143 0 -220 93.5t-55 240.5zM317 1025q-17 -111 27.5 -175t153.5 -64q99 0 166.5 67.5t83.5 171.5l17 117q16 108 -29.5 173t-150.5 65 q-100 0 -168 -68t-83 -170z" />
<glyph unicode="&#xbb;" horiz-adv-x="928" d="M206 339l57 211l7 216h123l20 -34h4l64 -112l42 -69l-2 -2h1l-17 -18l-143 -163h-7l-26 -28zM552 339l57 211l7 216h123l20 -34h4l64 -112l42 -69l-2 -2h1l-17 -18l-143 -163h-7l-26 -28z" />
<glyph unicode="&#xbc;" horiz-adv-x="1561" d="M288 177l882 1138l67 -48l-882 -1138zM301 1360l14 93l261 23l-122 -812h-109l105 703zM732 170l6 67l513 564h113l-81 -541h153l-13 -90h-154l-25 -170h-108l25 170h-429zM875 265l2 -5h298l60 401l-5 2l-32 -43z" />
<glyph unicode="&#xbd;" horiz-adv-x="1567" d="M301 177l882 1138l67 -48l-882 -1138zM301 1360l14 93l261 23l-122 -812h-109l105 703zM849 0l14 90l357 282q87 71 120.5 115.5t41.5 91.5q10 67 -23.5 104.5t-112.5 37.5q-84 0 -139 -42.5t-64 -107.5h-99l-2 6q9 101 97 168t221 67q119 0 183 -61.5t48 -172.5 q-12 -78 -65 -134.5t-176 -159.5l-242 -188l2 -6h422l-14 -90h-569z" />
<glyph unicode="&#xbe;" horiz-adv-x="1712" d="M188 883l2 6h102q-10 -65 35 -104t130 -39q87 0 144.5 38t67.5 103q11 77 -29.5 110.5t-134.5 33.5h-122l3 23l3 21l3 20l4 25h122q85 0 134 35.5t59 98.5q9 61 -30 97.5t-128 36.5q-72 0 -128.5 -36t-64.5 -93h-98l-2 6q9 98 97.5 156t209.5 58q127 0 197.5 -59 t54.5 -166q-9 -61 -51.5 -107.5t-109.5 -70.5q67 -23 98.5 -71t21.5 -118q-17 -113 -108.5 -172t-226.5 -59q-117 0 -196.5 58.5t-58.5 168.5zM471 177l882 1138l67 -48l-882 -1138zM921 170l6 67l513 564h113l-81 -541h153l-13 -90h-154l-25 -170h-108l25 170h-429z M1064 265l2 -5h298l60 401l-5 2l-32 -43z" />
<glyph unicode="&#xbf;" horiz-adv-x="958" d="M25 -20q20 139 99.5 238.5t224.5 218.5q68 52 89 98t36 143h120q-22 -131 -51.5 -183t-133.5 -136q-126 -113 -186.5 -188.5t-77.5 -189.5q-21 -133 36.5 -200.5t185.5 -67.5q113 0 197 69t104 185h111l2 -6q-23 -165 -144 -260t-286 -95q-173 0 -262 102t-64 272z M495 928l23 155h139l-23 -155h-139z" />
<glyph unicode="&#xc0;" horiz-adv-x="1256" d="M-42 0l753 1456h113l313 -1456h-124l-85 406h-638l-208 -406h-124zM345 513h561l-160 771l-6 1zM526 1869h161l164 -266h-117z" />
<glyph unicode="&#xc1;" horiz-adv-x="1256" d="M-42 0l753 1456h113l313 -1456h-124l-85 406h-638l-208 -406h-124zM345 513h561l-160 771l-6 1zM716 1602l239 261h147l2 -6l-286 -260h-100z" />
<glyph unicode="&#xc2;" horiz-adv-x="1256" d="M-42 0l753 1456h113l313 -1456h-124l-85 406h-638l-208 -406h-124zM345 513h561l-160 771l-6 1zM512 1601l3 21l260 221h98l197 -224l-3 -18h-112l-142 168l-191 -168h-110z" />
<glyph unicode="&#xc3;" horiz-adv-x="1256" d="M-42 0l753 1456h113l313 -1456h-124l-85 406h-638l-208 -406h-124zM345 513h561l-160 771l-6 1zM438 1622q12 89 74 146t146 57q62 0 137.5 -55t128.5 -55q44 0 83 36t47 91l77 -20q-13 -91 -75 -147.5t-145 -56.5q-69 0 -140.5 55t-126.5 55q-45 0 -83 -35.5t-45 -88.5z " />
<glyph unicode="&#xc4;" horiz-adv-x="1256" d="M-42 0l753 1456h113l313 -1456h-124l-85 406h-638l-208 -406h-124zM345 513h561l-160 771l-6 1zM469 1641l22 157h174l-22 -157h-174zM939 1641l22 157h173l-22 -157h-173z" />
<glyph unicode="&#xc5;" horiz-adv-x="1256" d="M-42 0l753 1456h113l313 -1456h-124l-85 406h-638l-208 -406h-124zM345 513h561l-160 771l-6 1zM652 1730q9 66 61 109.5t116 43.5q60 0 98.5 -45t29.5 -108q-11 -67 -61 -108t-113 -41q-62 0 -101.5 42.5t-29.5 106.5zM729 1730q-6 -34 13 -55.5t52 -21.5 q30 0 55.5 21.5t31.5 55.5q5 35 -13.5 57t-50.5 22q-31 0 -57 -23t-31 -56z" />
<glyph unicode="&#xc6;" horiz-adv-x="1900" d="M-47 0l1099 1456h864l-15 -102h-694l-59 -545h589l-15 -102h-585l-65 -606h702l-15 -101h-817l42 389h-597l-288 -389h-146zM470 502h526l90 837l-6 2l-20 -43z" />
<glyph unicode="&#xc7;" horiz-adv-x="1313" d="M143 609l36 237q43 288 216.5 459.5t419.5 171.5q228 0 356 -126t91 -343l-3 -6h-112q28 182 -64.5 277.5t-283.5 95.5q-183 0 -325 -149t-176 -378l-36 -239q-36 -242 57 -385.5t286 -143.5q182 0 307 97t153 278h111l2 -6q-29 -223 -189.5 -346.5t-398.5 -123.5 q-234 0 -361.5 177t-85.5 453zM427 -444l4 78q87 0 154.5 30.5t76.5 89.5t-28 80.5t-142 29.5l48 127h93l-22 -64q78 -9 120 -48.5t31 -122.5q-15 -95 -101 -147.5t-234 -52.5z" />
<glyph unicode="&#xc8;" horiz-adv-x="1129" d="M106 0l218 1456h870l-15 -102h-750l-82 -547h653l-15 -102h-654l-90 -604h755l-15 -101h-875zM517 1869h161l164 -266h-117z" />
<glyph unicode="&#xc9;" horiz-adv-x="1129" d="M106 0l218 1456h870l-15 -102h-750l-82 -547h653l-15 -102h-654l-90 -604h755l-15 -101h-875zM707 1602l239 261h147l2 -6l-286 -260h-100z" />
<glyph unicode="&#xca;" horiz-adv-x="1129" d="M106 0l218 1456h870l-15 -102h-750l-82 -547h653l-15 -102h-654l-90 -604h755l-15 -101h-875zM503 1601l3 21l260 221h98l197 -224l-3 -18h-112l-142 168l-191 -168h-110z" />
<glyph unicode="&#xcb;" horiz-adv-x="1129" d="M106 0l218 1456h870l-15 -102h-750l-82 -547h653l-15 -102h-654l-90 -604h755l-15 -101h-875zM460 1641l22 157h174l-22 -157h-174zM930 1641l22 157h173l-22 -157h-173z" />
<glyph unicode="&#xcc;" horiz-adv-x="554" d="M137 0l218 1456h120l-218 -1456h-120zM176 1869h161l164 -266h-117z" />
<glyph unicode="&#xcd;" horiz-adv-x="554" d="M137 0l218 1456h120l-218 -1456h-120zM365 1602l239 261h147l2 -6l-286 -260h-100z" />
<glyph unicode="&#xce;" horiz-adv-x="554" d="M137 0l218 1456h120l-218 -1456h-120zM162 1601l3 21l260 221h98l197 -224l-3 -18h-112l-142 168l-191 -168h-110z" />
<glyph unicode="&#xcf;" horiz-adv-x="554" d="M119 1641l22 157h174l-22 -157h-174zM137 0l218 1456h120l-218 -1456h-120zM589 1641l22 157h173l-22 -157h-173z" />
<glyph unicode="&#xd0;" horiz-adv-x="1378" d="M56 689l16 102h152l100 665h444q257 0 409.5 -180t111.5 -455l-28 -187q-44 -290 -242 -462t-469 -172h-444l103 689h-153zM241 101h324q208 0 374.5 152t201.5 381l29 190q34 237 -82.5 383.5t-334.5 146.5h-325l-84 -563h340l-16 -102h-339z" />
<glyph unicode="&#xd1;" horiz-adv-x="1445" d="M106 0l218 1456h120l641 -1243l5 1l187 1242h120l-218 -1456h-120l-641 1246l-5 -1l-187 -1245h-120zM532 1622q12 89 74 146t146 57q62 0 137.5 -55t128.5 -55q44 0 83 36t47 91l77 -20q-13 -91 -75 -147.5t-145 -56.5q-69 0 -140.5 55t-126.5 55q-45 0 -83 -35.5 t-45 -88.5z" />
<glyph unicode="&#xd2;" horiz-adv-x="1378" d="M135 609l36 237q44 292 220 461.5t435 169.5q250 0 383 -176.5t92 -454.5l-36 -237q-44 -293 -222 -461.5t-441 -168.5q-246 0 -377.5 175.5t-89.5 454.5zM255 609q-38 -247 56.5 -386.5t305.5 -139.5q205 0 349.5 145t179.5 381l36 239q37 245 -60.5 384.5t-311.5 139.5 q-200 0 -342 -145.5t-177 -378.5zM587 1890h161l164 -266h-117z" />
<glyph unicode="&#xd3;" horiz-adv-x="1378" d="M135 609l36 237q44 292 220 461.5t435 169.5q250 0 383 -176.5t92 -454.5l-36 -237q-44 -293 -222 -461.5t-441 -168.5q-246 0 -377.5 175.5t-89.5 454.5zM255 609q-38 -247 56.5 -386.5t305.5 -139.5q205 0 349.5 145t179.5 381l36 239q37 245 -60.5 384.5t-311.5 139.5 q-200 0 -342 -145.5t-177 -378.5zM777 1623l239 261h147l2 -6l-286 -260h-100z" />
<glyph unicode="&#xd4;" horiz-adv-x="1378" d="M135 609l36 237q44 292 220 461.5t435 169.5q250 0 383 -176.5t92 -454.5l-36 -237q-44 -293 -222 -461.5t-441 -168.5q-246 0 -377.5 175.5t-89.5 454.5zM255 609q-38 -247 56.5 -386.5t305.5 -139.5q205 0 349.5 145t179.5 381l36 239q37 245 -60.5 384.5t-311.5 139.5 q-200 0 -342 -145.5t-177 -378.5zM574 1622l3 21l260 221h98l197 -224l-3 -18h-112l-142 168l-191 -168h-110z" />
<glyph unicode="&#xd5;" horiz-adv-x="1378" d="M135 609l36 237q44 292 220 461.5t435 169.5q250 0 383 -176.5t92 -454.5l-36 -237q-44 -293 -222 -461.5t-441 -168.5q-246 0 -377.5 175.5t-89.5 454.5zM255 609q-38 -247 56.5 -386.5t305.5 -139.5q205 0 349.5 145t179.5 381l36 239q37 245 -60.5 384.5t-311.5 139.5 q-200 0 -342 -145.5t-177 -378.5zM499 1643q12 89 74 146t146 57q62 0 137.5 -55t128.5 -55q44 0 83 36t47 91l77 -20q-13 -91 -75 -147.5t-145 -56.5q-69 0 -140.5 55t-126.5 55q-45 0 -83 -35.5t-45 -88.5z" />
<glyph unicode="&#xd6;" horiz-adv-x="1378" d="M135 609l36 237q44 292 220 461.5t435 169.5q250 0 383 -176.5t92 -454.5l-36 -237q-44 -293 -222 -461.5t-441 -168.5q-246 0 -377.5 175.5t-89.5 454.5zM255 609q-38 -247 56.5 -386.5t305.5 -139.5q205 0 349.5 145t179.5 381l36 239q37 245 -60.5 384.5t-311.5 139.5 q-200 0 -342 -145.5t-177 -378.5zM530 1662l22 157h174l-22 -157h-174zM1000 1662l22 157h173l-22 -157h-173z" />
<glyph unicode="&#xd7;" horiz-adv-x="1072" d="M61 318l412 365l-290 350l91 80l290 -350l395 350l67 -80l-396 -350l304 -365l-91 -79l-303 364l-412 -364z" />
<glyph unicode="&#xd8;" horiz-adv-x="1379" d="M76 -84l166 217q-73 84 -101.5 206.5t-5.5 269.5l36 237q44 292 220 461.5t435 169.5q105 0 193 -34.5t152 -97.5l122 160h104l-173 -226q55 -84 75.5 -194.5t1.5 -238.5l-36 -237q-44 -293 -222 -461.5t-441 -168.5q-90 0 -165.5 24.5t-134.5 71.5l-122 -159h-104z M250.5 389.5q14.5 -96.5 60.5 -158.5l6 -2l786 1028q-50 56 -123.5 85.5t-169.5 29.5q-200 0 -342 -145.5t-177 -378.5l-36 -239q-19 -123 -4.5 -219.5zM367 161q46 -39 108.5 -58.5t141.5 -19.5q205 0 349.5 145t179.5 381l36 239q14 101 6.5 184t-37.5 143l-6 1z" />
<glyph unicode="&#xd9;" horiz-adv-x="1374" d="M160 489l145 967h120l-145 -967q-30 -196 64.5 -302.5t271.5 -106.5q171 0 305 111t162 298l145 967h119l-145 -967q-37 -249 -201.5 -379.5t-399.5 -130.5q-219 0 -348 136.5t-93 373.5zM595 1869h161l164 -266h-117z" />
<glyph unicode="&#xda;" horiz-adv-x="1374" d="M160 489l145 967h120l-145 -967q-30 -196 64.5 -302.5t271.5 -106.5q171 0 305 111t162 298l145 967h119l-145 -967q-37 -249 -201.5 -379.5t-399.5 -130.5q-219 0 -348 136.5t-93 373.5zM785 1602l239 261h147l2 -6l-286 -260h-100z" />
<glyph unicode="&#xdb;" horiz-adv-x="1374" d="M160 489l145 967h120l-145 -967q-30 -196 64.5 -302.5t271.5 -106.5q171 0 305 111t162 298l145 967h119l-145 -967q-37 -249 -201.5 -379.5t-399.5 -130.5q-219 0 -348 136.5t-93 373.5zM581 1601l3 21l260 221h98l197 -224l-3 -18h-112l-142 168l-191 -168h-110z" />
<glyph unicode="&#xdc;" horiz-adv-x="1374" d="M160 489l145 967h120l-145 -967q-30 -196 64.5 -302.5t271.5 -106.5q171 0 305 111t162 298l145 967h119l-145 -967q-37 -249 -201.5 -379.5t-399.5 -130.5q-219 0 -348 136.5t-93 373.5zM538 1641l22 157h174l-22 -157h-174zM1008 1641l22 157h173l-22 -157h-173z" />
<glyph unicode="&#xdd;" horiz-adv-x="1256" d="M176 1456h139l328 -809l571 809h139l-669 -923l-80 -533h-119l80 536zM712 1595l239 261h147l2 -6l-286 -260h-100z" />
<glyph unicode="&#xde;" horiz-adv-x="1214" d="M103 0l218 1456h120l-46 -304h325q212 0 322.5 -116.5t84.5 -297.5q-29 -192 -168.5 -303t-362.5 -111h-325l-48 -324h-120zM286 425h325q166 0 271 93t124 218q20 134 -53.5 224.5t-247.5 90.5h-325z" />
<glyph unicode="&#xdf;" horiz-adv-x="1200" d="M71 0l162 1082q32 212 149.5 321t291.5 109q134 0 216.5 -80t62.5 -222q-18 -115 -95 -219t-88 -181q-15 -92 148 -231.5t142 -283.5q-24 -159 -144 -237.5t-279 -78.5q-82 0 -171.5 23.5t-122.5 56.5l49 101q36 -31 106 -55.5t140 -24.5q120 0 204 60.5t98 154.5 q16 106 -147.5 244.5t-142.5 272.5q14 99 93 205t92 187q14 95 -36.5 151t-129.5 56q-116 0 -204.5 -86t-111.5 -243l-162 -1082h-120z" />
<glyph unicode="&#xe0;" horiz-adv-x="1101" d="M62 293q22 151 161.5 238t344.5 87h266l20 134q17 121 -45.5 184.5t-198.5 63.5q-118 0 -205 -60.5t-101 -150.5h-110l-2 6q13 126 136.5 216.5t302.5 90.5q172 0 269.5 -92t72.5 -260l-80 -532q-9 -59 -11 -112t6 -106h-125q-2 62 -2 101t6 80q-69 -87 -178.5 -144.5 t-239.5 -57.5q-153 0 -231 85.5t-56 228.5zM181 289q-14 -95 37.5 -149.5t159.5 -54.5q132 0 245 66t165 167l32 208h-267q-140 0 -248.5 -70t-123.5 -167zM393 1548h161l164 -266h-117z" />
<glyph unicode="&#xe1;" horiz-adv-x="1101" d="M62 293q22 151 161.5 238t344.5 87h266l20 134q17 121 -45.5 184.5t-198.5 63.5q-118 0 -205 -60.5t-101 -150.5h-110l-2 6q13 126 136.5 216.5t302.5 90.5q172 0 269.5 -92t72.5 -260l-80 -532q-9 -59 -11 -112t6 -106h-125q-2 62 -2 101t6 80q-69 -87 -178.5 -144.5 t-239.5 -57.5q-153 0 -231 85.5t-56 228.5zM181 289q-14 -95 37.5 -149.5t159.5 -54.5q132 0 245 66t165 167l32 208h-267q-140 0 -248.5 -70t-123.5 -167zM583 1281l239 261h147l2 -6l-286 -260h-100z" />
<glyph unicode="&#xe2;" horiz-adv-x="1101" d="M62 293q22 151 161.5 238t344.5 87h266l20 134q17 121 -45.5 184.5t-198.5 63.5q-118 0 -205 -60.5t-101 -150.5h-110l-2 6q13 126 136.5 216.5t302.5 90.5q172 0 269.5 -92t72.5 -260l-80 -532q-9 -59 -11 -112t6 -106h-125q-2 62 -2 101t6 80q-69 -87 -178.5 -144.5 t-239.5 -57.5q-153 0 -231 85.5t-56 228.5zM181 289q-14 -95 37.5 -149.5t159.5 -54.5q132 0 245 66t165 167l32 208h-267q-140 0 -248.5 -70t-123.5 -167zM379 1280l3 21l260 221h98l197 -224l-3 -18h-112l-142 168l-191 -168h-110z" />
<glyph unicode="&#xe3;" horiz-adv-x="1101" d="M62 293q22 151 161.5 238t344.5 87h266l20 134q17 121 -45.5 184.5t-198.5 63.5q-118 0 -205 -60.5t-101 -150.5h-110l-2 6q13 126 136.5 216.5t302.5 90.5q172 0 269.5 -92t72.5 -260l-80 -532q-9 -59 -11 -112t6 -106h-125q-2 62 -2 101t6 80q-69 -87 -178.5 -144.5 t-239.5 -57.5q-153 0 -231 85.5t-56 228.5zM181 289q-14 -95 37.5 -149.5t159.5 -54.5q132 0 245 66t165 167l32 208h-267q-140 0 -248.5 -70t-123.5 -167zM305 1301q12 89 74 146t146 57q62 0 137.5 -55t128.5 -55q44 0 83 36t47 91l77 -20q-13 -91 -75 -147.5t-145 -56.5 q-69 0 -140.5 55t-126.5 55q-45 0 -83 -35.5t-45 -88.5z" />
<glyph unicode="&#xe4;" horiz-adv-x="1101" d="M62 293q22 151 161.5 238t344.5 87h266l20 134q17 121 -45.5 184.5t-198.5 63.5q-118 0 -205 -60.5t-101 -150.5h-110l-2 6q13 126 136.5 216.5t302.5 90.5q172 0 269.5 -92t72.5 -260l-80 -532q-9 -59 -11 -112t6 -106h-125q-2 62 -2 101t6 80q-69 -87 -178.5 -144.5 t-239.5 -57.5q-153 0 -231 85.5t-56 228.5zM181 289q-14 -95 37.5 -149.5t159.5 -54.5q132 0 245 66t165 167l32 208h-267q-140 0 -248.5 -70t-123.5 -167zM336 1320l22 157h174l-22 -157h-174zM806 1320l22 157h173l-22 -157h-173z" />
<glyph unicode="&#xe5;" horiz-adv-x="1101" d="M62 293q22 151 161.5 238t344.5 87h266l20 134q17 121 -45.5 184.5t-198.5 63.5q-118 0 -205 -60.5t-101 -150.5h-110l-2 6q13 126 136.5 216.5t302.5 90.5q172 0 269.5 -92t72.5 -260l-80 -532q-9 -59 -11 -112t6 -106h-125q-2 62 -2 101t6 80q-69 -87 -178.5 -144.5 t-239.5 -57.5q-153 0 -231 85.5t-56 228.5zM181 289q-14 -95 37.5 -149.5t159.5 -54.5q132 0 245 66t165 167l32 208h-267q-140 0 -248.5 -70t-123.5 -167zM519 1409q9 66 61 109.5t116 43.5q60 0 98.5 -45t29.5 -108q-11 -67 -61 -108t-113 -41q-62 0 -101.5 42.5 t-29.5 106.5zM596 1409q-6 -34 13 -55.5t52 -21.5q30 0 55.5 21.5t31.5 55.5q5 35 -13.5 57t-50.5 22q-31 0 -57 -23t-31 -56z" />
<glyph unicode="&#xe6;" horiz-adv-x="1796" d="M71 293q23 153 146.5 234.5t339.5 81.5h262l17 111q20 138 -31.5 209t-171.5 71q-125 0 -213 -67.5t-102 -167.5l-109 12l-1 6q16 143 136.5 231t303.5 88q115 0 195 -53.5t107 -154.5q75 99 179 153.5t221 54.5q193 0 289.5 -125.5t64.5 -338.5l-15 -100h-755l-4 -29 q-30 -198 41.5 -313.5t255.5 -115.5q99 0 185.5 33t156.5 86l34 -87q-68 -55 -162.5 -94t-228.5 -39q-133 0 -227.5 56.5t-141.5 160.5q-62 -88 -182.5 -152.5t-281.5 -64.5q-164 0 -247 85.5t-61 228.5zM190 289q-15 -100 41.5 -155t179.5 -55q98 0 203 53.5t151 115.5 l39 264h-259q-149 0 -245 -64.5t-110 -158.5zM960 642l2 -6h622l5 31q22 151 -41 242t-213 91q-132 0 -235.5 -102.5t-139.5 -255.5z" />
<glyph unicode="&#xe7;" horiz-adv-x="1054" d="M95 520l6 42q36 244 177.5 392t359.5 148q168 0 271 -106t74 -276l-2 -5h-108q20 135 -52.5 210t-197.5 75q-163 0 -268.5 -127t-133.5 -311l-6 -42q-30 -197 34 -318.5t237 -121.5q111 0 211.5 68.5t119.5 188.5h106l2 -6q-20 -157 -155.5 -254.5t-298.5 -97.5 q-208 0 -310 153.5t-66 387.5zM296 -444l4 78q87 0 154.5 30.5t76.5 89.5t-28 80.5t-142 29.5l48 127h93l-22 -64q78 -9 120 -48.5t31 -122.5q-15 -95 -101 -147.5t-234 -52.5z" />
<glyph unicode="&#xe8;" horiz-adv-x="1054" d="M93 509l9 55q35 243 188.5 390.5t352.5 147.5q190 0 281.5 -128t60.5 -339l-14 -93h-753l-5 -33q-29 -192 46.5 -310.5t241.5 -118.5q95 0 185.5 33t152.5 87l39 -82q-66 -60 -164.5 -99.5t-227.5 -39.5q-202 0 -315 150t-78 380zM245 650l2 -6h620l3 25q22 149 -39 240 t-203 91q-132 0 -238 -100t-145 -250zM398 1548h161l164 -266h-117z" />
<glyph unicode="&#xe9;" horiz-adv-x="1054" d="M93 509l9 55q35 243 188.5 390.5t352.5 147.5q190 0 281.5 -128t60.5 -339l-14 -93h-753l-5 -33q-29 -192 46.5 -310.5t241.5 -118.5q95 0 185.5 33t152.5 87l39 -82q-66 -60 -164.5 -99.5t-227.5 -39.5q-202 0 -315 150t-78 380zM245 650l2 -6h620l3 25q22 149 -39 240 t-203 91q-132 0 -238 -100t-145 -250zM588 1281l239 261h147l2 -6l-286 -260h-100z" />
<glyph unicode="&#xea;" horiz-adv-x="1054" d="M93 509l9 55q35 243 188.5 390.5t352.5 147.5q190 0 281.5 -128t60.5 -339l-14 -93h-753l-5 -33q-29 -192 46.5 -310.5t241.5 -118.5q95 0 185.5 33t152.5 87l39 -82q-66 -60 -164.5 -99.5t-227.5 -39.5q-202 0 -315 150t-78 380zM245 650l2 -6h620l3 25q22 149 -39 240 t-203 91q-132 0 -238 -100t-145 -250zM384 1280l3 21l260 221h98l197 -224l-3 -18h-112l-142 168l-191 -168h-110z" />
<glyph unicode="&#xeb;" horiz-adv-x="1054" d="M93 509l9 55q35 243 188.5 390.5t352.5 147.5q190 0 281.5 -128t60.5 -339l-14 -93h-753l-5 -33q-29 -192 46.5 -310.5t241.5 -118.5q95 0 185.5 33t152.5 87l39 -82q-66 -60 -164.5 -99.5t-227.5 -39.5q-202 0 -315 150t-78 380zM245 650l2 -6h620l3 25q22 149 -39 240 t-203 91q-132 0 -238 -100t-145 -250zM341 1320l22 157h174l-22 -157h-174zM811 1320l22 157h173l-22 -157h-173z" />
<glyph unicode="&#xec;" horiz-adv-x="456" d="M75 1526h161l164 -266h-117zM88 0l162 1082h120l-162 -1082h-120z" />
<glyph unicode="&#xed;" horiz-adv-x="456" d="M88 0l162 1082h120l-162 -1082h-120zM264 1259l239 261h147l2 -6l-286 -260h-100z" />
<glyph unicode="&#xee;" horiz-adv-x="456" d="M62 1258l3 21l260 221h98l197 -224l-3 -18h-112l-142 168l-191 -168h-110zM88 0l162 1082h120l-162 -1082h-120z" />
<glyph unicode="&#xef;" horiz-adv-x="456" d="M19 1299l22 157h174l-22 -157h-174zM88 0l162 1082h120l-162 -1082h-120zM489 1299l22 157h173l-22 -157h-173z" />
<glyph unicode="&#xf0;" horiz-adv-x="1191" d="M87 455q36 244 182.5 377t361.5 133q110 0 201 -46.5t135 -122.5l4 4q20 152 -11.5 263.5t-104.5 189.5l-361 -190l-38 74l331 174q-42 30 -92 55t-109 47l55 104q78 -27 144 -63t119 -81l261 138l40 -74l-239 -126q85 -102 116.5 -241t5.5 -315l-33 -220 q-38 -254 -196 -405t-368 -151q-200 0 -317 138t-87 338zM207 455q-24 -154 56.5 -263.5t246.5 -109.5q152 0 273.5 129t151.5 324l21 141q-27 77 -114 131t-227 54q-160 0 -271 -116.5t-137 -289.5z" />
<glyph unicode="&#xf1;" d="M78 0l162 1082h106l-16 -181q67 97 162.5 149t217.5 52q170 0 249 -108.5t45 -334.5l-99 -659h-120l99 658q28 193 -28.5 266.5t-187.5 73.5q-124 0 -213.5 -65.5t-142.5 -173.5l-114 -759h-120zM340 1300q12 89 74 146t146 57q62 0 137.5 -55t128.5 -55q44 0 83 36 t47 91l77 -20q-13 -91 -75 -147.5t-145 -56.5q-69 0 -140.5 55t-126.5 55q-45 0 -83 -35.5t-45 -88.5z" />
<glyph unicode="&#xf2;" d="M90 524l5 33q36 248 188 396.5t371 148.5q208 0 320.5 -154.5t77.5 -390.5l-5 -33q-38 -249 -189.5 -397t-369.5 -148q-209 0 -321.5 154t-76.5 391zM210 524q-30 -195 45.5 -319.5t247.5 -124.5q160 0 278 129.5t147 314.5l5 33q28 192 -48.5 317.5t-245.5 125.5 q-161 0 -279 -130.5t-145 -312.5zM431 1547h161l164 -266h-117z" />
<glyph unicode="&#xf3;" d="M90 524l5 33q36 248 188 396.5t371 148.5q208 0 320.5 -154.5t77.5 -390.5l-5 -33q-38 -249 -189.5 -397t-369.5 -148q-209 0 -321.5 154t-76.5 391zM210 524q-30 -195 45.5 -319.5t247.5 -124.5q160 0 278 129.5t147 314.5l5 33q28 192 -48.5 317.5t-245.5 125.5 q-161 0 -279 -130.5t-145 -312.5zM621 1280l239 261h147l2 -6l-286 -260h-100z" />
<glyph unicode="&#xf4;" d="M90 524l5 33q36 248 188 396.5t371 148.5q208 0 320.5 -154.5t77.5 -390.5l-5 -33q-38 -249 -189.5 -397t-369.5 -148q-209 0 -321.5 154t-76.5 391zM210 524q-30 -195 45.5 -319.5t247.5 -124.5q160 0 278 129.5t147 314.5l5 33q28 192 -48.5 317.5t-245.5 125.5 q-161 0 -279 -130.5t-145 -312.5zM418 1279l3 21l260 221h98l197 -224l-3 -18h-112l-142 168l-191 -168h-110z" />
<glyph unicode="&#xf5;" d="M90 524l5 33q36 248 188 396.5t371 148.5q208 0 320.5 -154.5t77.5 -390.5l-5 -33q-38 -249 -189.5 -397t-369.5 -148q-209 0 -321.5 154t-76.5 391zM210 524q-30 -195 45.5 -319.5t247.5 -124.5q160 0 278 129.5t147 314.5l5 33q28 192 -48.5 317.5t-245.5 125.5 q-161 0 -279 -130.5t-145 -312.5zM344 1300q12 89 74 146t146 57q62 0 137.5 -55t128.5 -55q44 0 83 36t47 91l77 -20q-13 -91 -75 -147.5t-145 -56.5q-69 0 -140.5 55t-126.5 55q-45 0 -83 -35.5t-45 -88.5z" />
<glyph unicode="&#xf6;" d="M90 524l5 33q36 248 188 396.5t371 148.5q208 0 320.5 -154.5t77.5 -390.5l-5 -33q-38 -249 -189.5 -397t-369.5 -148q-209 0 -321.5 154t-76.5 391zM210 524q-30 -195 45.5 -319.5t247.5 -124.5q160 0 278 129.5t147 314.5l5 33q28 192 -48.5 317.5t-245.5 125.5 q-161 0 -279 -130.5t-145 -312.5zM375 1319l22 157h174l-22 -157h-174zM845 1319l22 157h173l-22 -157h-173z" />
<glyph unicode="&#xf7;" horiz-adv-x="1164" d="M89 644l17 116h998l-17 -116h-998zM458 212l24 160h142l-24 -160h-142zM578 1010l24 160h142l-24 -160h-142z" />
<glyph unicode="&#xf8;" horiz-adv-x="1141" d="M90 524l5 33q36 248 188 396.5t371 148.5q58 0 110 -13.5t97 -38.5l105 164h93l-135 -210q80 -73 114 -189.5t14 -257.5l-5 -33q-38 -249 -189.5 -397t-369.5 -148q-53 0 -101 11t-90 32l-104 -162h-93l131 205q-89 71 -126.5 191t-14.5 268zM210 524q-19 -116 1.5 -210 t77.5 -146l6 -1l507 790q-34 20 -75 31.5t-88 11.5q-161 0 -279 -130.5t-145 -312.5zM355 113q30 -17 67 -25t81 -8q160 0 278 129.5t147 314.5l5 33q15 107 -2.5 196.5t-66.5 144.5l-6 1z" />
<glyph unicode="&#xf9;" d="M142 455l94 627h120l-94 -629q-32 -206 22 -288t181 -82q132 0 223.5 63t141.5 171l114 765h120l-162 -1082h-106l16 171q-66 -93 -161 -142.5t-215 -49.5q-165 0 -247.5 117t-46.5 359zM426 1526h161l164 -266h-117z" />
<glyph unicode="&#xfa;" d="M142 455l94 627h120l-94 -629q-32 -206 22 -288t181 -82q132 0 223.5 63t141.5 171l114 765h120l-162 -1082h-106l16 171q-66 -93 -161 -142.5t-215 -49.5q-165 0 -247.5 117t-46.5 359zM616 1259l239 261h147l2 -6l-286 -260h-100z" />
<glyph unicode="&#xfb;" d="M142 455l94 627h120l-94 -629q-32 -206 22 -288t181 -82q132 0 223.5 63t141.5 171l114 765h120l-162 -1082h-106l16 171q-66 -93 -161 -142.5t-215 -49.5q-165 0 -247.5 117t-46.5 359zM413 1258l3 21l260 221h98l197 -224l-3 -18h-112l-142 168l-191 -168h-110z" />
<glyph unicode="&#xfc;" d="M142 455l94 627h120l-94 -629q-32 -206 22 -288t181 -82q132 0 223.5 63t141.5 171l114 765h120l-162 -1082h-106l16 171q-66 -93 -161 -142.5t-215 -49.5q-165 0 -247.5 117t-46.5 359zM370 1299l22 157h174l-22 -157h-174zM840 1299l22 157h173l-22 -157h-173z" />
<glyph unicode="&#xfd;" horiz-adv-x="1002" d="M-43 -423l29 100q12 -2 38 -4.5t38 -2.5q75 0 132.5 57t101.5 141l79 146l-258 1068h133l179 -789l19 -129l6 -1l464 919h134l-658 -1255q-59 -110 -137.5 -187t-207.5 -77q-20 0 -49 4.5t-43 9.5zM550 1259l239 261h147l2 -6l-286 -260h-100z" />
<glyph unicode="&#xfe;" horiz-adv-x="1151" d="M26 -416l62 416h-1l234 1560h119l-97 -642q68 88 159.5 136t206.5 48q188 0 278 -157t52 -413l-3 -21q-38 -252 -167.5 -392t-325.5 -140q-110 0 -189.5 44.5t-123.5 125.5l-84 -565h-120zM248 269q29 -88 98.5 -138.5t184.5 -50.5q151 0 253 119.5t132 311.5l3 21 q32 213 -30.5 339.5t-221.5 126.5q-116 0 -201.5 -59t-139.5 -151z" />
<glyph unicode="&#xff;" horiz-adv-x="1002" d="M-43 -423l29 100q12 -2 38 -4.5t38 -2.5q75 0 132.5 57t101.5 141l79 146l-258 1068h133l179 -789l19 -129l6 -1l464 919h134l-658 -1255q-59 -110 -137.5 -187t-207.5 -77q-20 0 -49 4.5t-43 9.5zM304 1299l22 157h174l-22 -157h-174zM774 1299l22 157h173l-22 -157 h-173z" />
<glyph unicode="&#x152;" horiz-adv-x="1913" d="M114 576l46 304q41 275 212.5 436t413.5 161q72 0 150.5 -6t158.5 -15h834l-15 -102h-750l-82 -547h653l-15 -102h-654l-90 -604h755l-15 -101h-839q-97 -10 -169 -15.5t-145 -5.5q-230 0 -359.5 167.5t-89.5 429.5zM234 576q-35 -237 57.5 -366t286.5 -129q67 0 140.5 4 t136.5 13l189 1259q-62 8 -131 13t-143 5q-185 0 -321 -133.5t-169 -359.5z" />
<glyph unicode="&#x153;" horiz-adv-x="1890" d="M90 524l5 33q36 248 188 396.5t371 148.5q122 0 215 -57.5t142 -158.5q77 103 184.5 159.5t227.5 56.5q190 0 281.5 -128t60.5 -339l-14 -93h-702l-2 -18q-9 -54 -22.5 -103t-32.5 -94q19 -116 93 -181.5t196 -65.5q95 0 185.5 33t152.5 87l39 -82q-66 -60 -164.5 -99.5 t-227.5 -39.5q-120 0 -211.5 55.5t-140.5 156.5q-78 -103 -187 -157.5t-239 -54.5q-209 0 -321.5 154t-76.5 391zM210 524q-30 -195 45.5 -319.5t247.5 -124.5q116 0 212 70.5t155 188.5q-6 39 -5 81.5t8 88.5l9 55q7 49 19.5 95t30.5 88q-22 116 -96.5 184.5t-196.5 68.5 q-161 0 -279 -130.5t-145 -312.5zM1054 739q3 -26 4.5 -49.5t1.5 -45.5h587l3 25q22 149 -39 240t-203 91q-110 0 -204 -71.5t-150 -189.5z" />
<glyph unicode="&#x178;" horiz-adv-x="1256" d="M176 1456h139l328 -809l571 809h139l-669 -923l-80 -533h-119l80 536zM465 1634l22 157h174l-22 -157h-174zM935 1634l22 157h173l-22 -157h-173z" />
<glyph unicode="&#x2c6;" horiz-adv-x="880" d="M268 1252l3 21l260 221h98l197 -224l-3 -18h-112l-142 168l-191 -168h-110z" />
<glyph unicode="&#x2dc;" horiz-adv-x="892" d="M206 1281q12 89 74 146t146 57q62 0 137.5 -55t128.5 -55q44 0 83 36t47 91l77 -20q-13 -91 -75 -147.5t-145 -56.5q-69 0 -140.5 55t-126.5 55q-45 0 -83 -35.5t-45 -88.5z" />
<glyph unicode="&#x2000;" horiz-adv-x="945" />
<glyph unicode="&#x2001;" horiz-adv-x="1890" />
<glyph unicode="&#x2002;" horiz-adv-x="945" />
<glyph unicode="&#x2003;" horiz-adv-x="1890" />
<glyph unicode="&#x2004;" horiz-adv-x="630" />
<glyph unicode="&#x2005;" horiz-adv-x="472" />
<glyph unicode="&#x2006;" horiz-adv-x="315" />
<glyph unicode="&#x2007;" horiz-adv-x="315" />
<glyph unicode="&#x2008;" horiz-adv-x="236" />
<glyph unicode="&#x2009;" horiz-adv-x="378" />
<glyph unicode="&#x200a;" horiz-adv-x="105" />
<glyph unicode="&#x2010;" horiz-adv-x="860" d="M136 570l15 101h590l-15 -101h-590z" />
<glyph unicode="&#x2011;" horiz-adv-x="860" d="M136 570l15 101h590l-15 -101h-590z" />
<glyph unicode="&#x2012;" horiz-adv-x="860" d="M136 570l15 101h590l-15 -101h-590z" />
<glyph unicode="&#x2013;" horiz-adv-x="1414" d="M193 686l20 102h1085l-19 -102h-1086z" />
<glyph unicode="&#x2014;" horiz-adv-x="1667" d="M171 686l24 102h1336l-24 -102h-1336z" />
<glyph unicode="&#x2018;" horiz-adv-x="473" d="M225 970l26 175l120 311h71l-71 -312l-26 -174h-120z" />
<glyph unicode="&#x2019;" horiz-adv-x="469" d="M223 970l71 304l27 182h119l-26 -179l-119 -307h-72z" />
<glyph unicode="&#x201a;" horiz-adv-x="489" d="M49 -211l65 266l31 204h120l-29 -194l-116 -276h-71z" />
<glyph unicode="&#x201c;" horiz-adv-x="726" d="M203 970l26 175l120 311h71l-71 -312l-26 -174h-120zM531 970l26 175l120 311h71l-71 -312l-26 -174h-120z" />
<glyph unicode="&#x201d;" horiz-adv-x="708" d="M188 970l71 304l27 182h119l-26 -179l-119 -307h-72zM524 970l71 304l27 182h119l-26 -179l-119 -307h-72z" />
<glyph unicode="&#x201e;" horiz-adv-x="685" d="M37 -202l69 295l27 181h120l-26 -175l-119 -301h-71zM276 -202l71 299l26 177h119l-26 -175l-118 -301h-72z" />
<glyph unicode="&#x2022;" horiz-adv-x="662" d="M174 717l9 65q12 81 69.5 130t142.5 49q82 0 126.5 -51t32.5 -128l-9 -65q-13 -82 -70 -129.5t-142 -47.5q-82 0 -126.5 49.5t-32.5 127.5z" />
<glyph unicode="&#x2026;" horiz-adv-x="1313" d="M87 0l25 164h137l-25 -164h-137zM530 0l25 164h137l-25 -164h-137zM950 0l25 164h137l-25 -164h-137z" />
<glyph unicode="&#x202f;" horiz-adv-x="378" />
<glyph unicode="&#x2039;" horiz-adv-x="609" d="M110 546l1 6l1 7l1 6l352 379h98l2 -5l-330 -384l218 -388h-105z" />
<glyph unicode="&#x203a;" horiz-adv-x="609" d="M184 339l57 211l7 216h123l20 -34h4l64 -112l42 -69l-2 -2h1l-17 -18l-143 -163h-7l-26 -28z" />
<glyph unicode="&#x205f;" horiz-adv-x="472" />
<glyph unicode="&#x20ac;" horiz-adv-x="1073" d="M80 533l13 88h169l29 195h-169l14 89h168l6 37q38 253 193.5 394t378.5 141q55 0 110.5 -8t116.5 -23l-25 -106q-52 16 -107 25.5t-111 9.5q-165 0 -286 -117t-150 -314l-6 -39h547l-14 -89h-546l-30 -195h547l-13 -88h-547l-3 -19q-31 -206 52.5 -320t256.5 -114 q55 0 113.5 8.5t112.5 25.5l-6 -104q-56 -15 -116 -23t-119 -8q-212 0 -330.5 146.5t-82.5 388.5l3 19h-169z" />
<glyph unicode="&#x2122;" horiz-adv-x="1264" d="M224 1387l10 69h384l-10 -69h-153l-69 -468h-74l69 468h-157zM616 919l80 537h94l108 -422l6 -1l237 423h88l-80 -537h-73l57 382l-6 2l-217 -384h-51l-106 399l-6 -1l-59 -398h-72z" />
<glyph unicode="&#x25fc;" horiz-adv-x="1080" d="M0 0v1080h1080v-1080h-1080z" />
<glyph unicode="&#xfb02;" horiz-adv-x="1123" d="M129 984l14 98h179l24 158q25 169 119 255t243 86q31 0 65 -5t68 -14l-31 -99q-22 6 -47 9.5t-59 3.5q-94 0 -157.5 -62.5t-80.5 -173.5l-24 -158h245l-14 -98h-245l-148 -984h-120l147 984h-178zM751 0l234 1560h119l-234 -1560h-119z" />
<glyph unicode="&#xfb03;" horiz-adv-x="1758" d="M129 984l14 98h179l24 158q25 169 119 255t243 86q31 0 65 -5t68 -14l-31 -99q-22 6 -47 9.5t-59 3.5q-94 0 -157.5 -62.5t-80.5 -173.5l-24 -158h245l-14 -98h-245l-148 -984h-120l147 984h-178zM774 984l14 98h180l21 138q27 179 134.5 270t278.5 91q64 0 132.5 -15 t134.5 -44l-35 -103q-57 25 -112 39t-128 14q-118 0 -193 -65.5t-92 -186.5l-21 -138h253l-14 -98h-253l-148 -984h-120l147 984h-179zM1386 0l162 1082h120l-162 -1082h-120z" />
<glyph unicode="&#xfb04;" horiz-adv-x="1781" d="M129 984l14 98h179l24 158q25 169 119 255t243 86q31 0 65 -5t68 -14l-31 -99q-22 6 -47 9.5t-59 3.5q-94 0 -157.5 -62.5t-80.5 -173.5l-24 -158h245l-14 -98h-245l-148 -984h-120l147 984h-178zM787 984l14 98h179l24 158q25 169 119 255t243 86q31 0 65 -5t68 -14 l-31 -99q-22 6 -47 9.5t-59 3.5q-94 0 -157.5 -62.5t-80.5 -173.5l-24 -158h245l-14 -98h-245l-148 -984h-120l147 984h-178zM1409 0l234 1560h119l-234 -1560h-119z" />
<hkern u1="&#x22;" u2="w" k="-11" />
<hkern u1="&#x27;" u2="w" k="-11" />
<hkern u1="&#x28;" u2="&#x178;" k="-22" />
<hkern u1="&#x28;" u2="&#xdd;" k="-22" />
<hkern u1="&#x28;" u2="Y" k="-22" />
<hkern u1="&#x28;" u2="W" k="-18" />
<hkern u1="&#x28;" u2="V" k="-20" />
<hkern u1="A" u2="w" k="33" />
<hkern u1="A" u2="t" k="17" />
<hkern u1="A" u2="&#x3f;" k="61" />
<hkern u1="C" u2="&#x7d;" k="17" />
<hkern u1="C" u2="]" k="12" />
<hkern u1="C" u2="&#x29;" k="26" />
<hkern u1="D" u2="&#xc6;" k="33" />
<hkern u1="E" u2="w" k="22" />
<hkern u1="E" u2="f" k="18" />
<hkern u1="F" u2="&#x2026;" k="234" />
<hkern u1="F" u2="&#x201e;" k="234" />
<hkern u1="F" u2="&#x201a;" k="234" />
<hkern u1="F" u2="&#x153;" k="21" />
<hkern u1="F" u2="&#xff;" k="24" />
<hkern u1="F" u2="&#xfd;" k="24" />
<hkern u1="F" u2="&#xfc;" k="22" />
<hkern u1="F" u2="&#xfb;" k="22" />
<hkern u1="F" u2="&#xfa;" k="22" />
<hkern u1="F" u2="&#xf9;" k="22" />
<hkern u1="F" u2="&#xf6;" k="21" />
<hkern u1="F" u2="&#xf5;" k="21" />
<hkern u1="F" u2="&#xf4;" k="21" />
<hkern u1="F" u2="&#xf3;" k="21" />
<hkern u1="F" u2="&#xf2;" k="21" />
<hkern u1="F" u2="&#xeb;" k="21" />
<hkern u1="F" u2="&#xea;" k="21" />
<hkern u1="F" u2="&#xe9;" k="21" />
<hkern u1="F" u2="&#xe8;" k="21" />
<hkern u1="F" u2="&#xe7;" k="21" />
<hkern u1="F" u2="&#xe5;" k="34" />
<hkern u1="F" u2="&#xe4;" k="34" />
<hkern u1="F" u2="&#xe3;" k="34" />
<hkern u1="F" u2="&#xe2;" k="34" />
<hkern u1="F" u2="&#xe1;" k="34" />
<hkern u1="F" u2="&#xe0;" k="34" />
<hkern u1="F" u2="&#xc5;" k="59" />
<hkern u1="F" u2="&#xc4;" k="59" />
<hkern u1="F" u2="&#xc3;" k="59" />
<hkern u1="F" u2="&#xc2;" k="59" />
<hkern u1="F" u2="&#xc1;" k="59" />
<hkern u1="F" u2="&#xc0;" k="59" />
<hkern u1="F" u2="y" k="24" />
<hkern u1="F" u2="v" k="24" />
<hkern u1="F" u2="u" k="22" />
<hkern u1="F" u2="r" k="26" />
<hkern u1="F" u2="q" k="21" />
<hkern u1="F" u2="o" k="21" />
<hkern u1="F" u2="g" k="21" />
<hkern u1="F" u2="e" k="21" />
<hkern u1="F" u2="d" k="21" />
<hkern u1="F" u2="c" k="21" />
<hkern u1="F" u2="a" k="34" />
<hkern u1="F" u2="A" k="59" />
<hkern u1="F" u2="&#x3a;" k="234" />
<hkern u1="F" u2="&#x2e;" k="234" />
<hkern u1="F" u2="&#x2c;" k="234" />
<hkern u1="K" u2="w" k="63" />
<hkern u1="L" u2="w" k="92" />
<hkern u1="O" u2="&#xc6;" k="33" />
<hkern u1="P" u2="&#xc6;" k="97" />
<hkern u1="P" u2="t" k="-14" />
<hkern u1="Q" u2="&#x178;" k="35" />
<hkern u1="Q" u2="&#xdd;" k="35" />
<hkern u1="Q" u2="Y" k="35" />
<hkern u1="Q" u2="W" k="20" />
<hkern u1="Q" u2="V" k="28" />
<hkern u1="Q" u2="T" k="43" />
<hkern u1="R" u2="&#x178;" k="48" />
<hkern u1="R" u2="&#xdd;" k="48" />
<hkern u1="R" u2="Y" k="48" />
<hkern u1="R" u2="V" k="19" />
<hkern u1="R" u2="T" k="80" />
<hkern u1="T" u2="&#xf8;" k="95" />
<hkern u1="T" u2="&#xe6;" k="114" />
<hkern u1="T" u2="&#xc6;" k="179" />
<hkern u1="T" u2="&#xbb;" k="216" />
<hkern u1="T" u2="&#xab;" k="328" />
<hkern u1="T" u2="w" k="57" />
<hkern u1="T" u2="r" k="75" />
<hkern u1="V" u2="&#x7d;" k="-19" />
<hkern u1="V" u2="r" k="30" />
<hkern u1="V" u2="]" k="-17" />
<hkern u1="V" u2="&#x29;" k="-20" />
<hkern u1="W" u2="&#x7d;" k="-14" />
<hkern u1="W" u2="r" k="21" />
<hkern u1="W" u2="]" k="-12" />
<hkern u1="W" u2="&#x29;" k="-15" />
<hkern u1="Y" u2="&#x2022;" k="45" />
<hkern u1="Y" u2="&#xf8;" k="64" />
<hkern u1="Y" u2="&#xe6;" k="63" />
<hkern u1="Y" u2="&#xc6;" k="96" />
<hkern u1="Y" u2="&#xbb;" k="51" />
<hkern u1="Y" u2="&#xab;" k="82" />
<hkern u1="Y" u2="&#x7d;" k="-19" />
<hkern u1="Y" u2="t" k="22" />
<hkern u1="Y" u2="r" k="40" />
<hkern u1="Y" u2="f" k="22" />
<hkern u1="Y" u2="]" k="-18" />
<hkern u1="Y" u2="&#x2a;" k="49" />
<hkern u1="Y" u2="&#x29;" k="-20" />
<hkern u1="Y" u2="&#x26;" k="30" />
<hkern u1="Z" u2="w" k="27" />
<hkern u1="[" u2="&#xdc;" k="18" />
<hkern u1="[" u2="&#xdb;" k="18" />
<hkern u1="[" u2="&#xda;" k="18" />
<hkern u1="[" u2="&#xd9;" k="18" />
<hkern u1="[" u2="U" k="18" />
<hkern u1="[" u2="J" k="18" />
<hkern u1="f" u2="&#x201d;" k="-16" />
<hkern u1="f" u2="&#x201c;" k="-16" />
<hkern u1="f" u2="&#x2019;" k="-16" />
<hkern u1="f" u2="&#x2018;" k="-16" />
<hkern u1="f" u2="&#x153;" k="24" />
<hkern u1="f" u2="&#xeb;" k="24" />
<hkern u1="f" u2="&#xea;" k="24" />
<hkern u1="f" u2="&#xe9;" k="24" />
<hkern u1="f" u2="&#xe8;" k="24" />
<hkern u1="f" u2="&#xe7;" k="24" />
<hkern u1="f" u2="&#x7d;" k="-19" />
<hkern u1="f" u2="q" k="24" />
<hkern u1="f" u2="g" k="24" />
<hkern u1="f" u2="e" k="24" />
<hkern u1="f" u2="d" k="24" />
<hkern u1="f" u2="c" k="24" />
<hkern u1="f" u2="]" k="-18" />
<hkern u1="f" u2="&#x29;" k="-20" />
<hkern u1="f" u2="&#x27;" k="-16" />
<hkern u1="f" u2="&#x22;" k="-16" />
<hkern u1="k" u2="&#x153;" k="20" />
<hkern u1="k" u2="&#xeb;" k="20" />
<hkern u1="k" u2="&#xea;" k="20" />
<hkern u1="k" u2="&#xe9;" k="20" />
<hkern u1="k" u2="&#xe8;" k="20" />
<hkern u1="k" u2="&#xe7;" k="20" />
<hkern u1="k" u2="q" k="20" />
<hkern u1="k" u2="g" k="20" />
<hkern u1="k" u2="e" k="20" />
<hkern u1="k" u2="d" k="20" />
<hkern u1="k" u2="c" k="20" />
<hkern u1="r" u2="w" k="-17" />
<hkern u1="r" u2="t" k="-17" />
<hkern u1="r" u2="f" k="-15" />
<hkern u1="v" u2="f" k="-13" />
<hkern u1="w" u2="&#x2026;" k="124" />
<hkern u1="w" u2="&#x201e;" k="124" />
<hkern u1="w" u2="&#x201a;" k="124" />
<hkern u1="w" u2="&#x3a;" k="124" />
<hkern u1="w" u2="&#x2e;" k="124" />
<hkern u1="w" u2="&#x2c;" k="124" />
<hkern u1="y" u2="f" k="-13" />
<hkern u1="&#x7b;" u2="&#xdc;" k="20" />
<hkern u1="&#x7b;" u2="&#xdb;" k="20" />
<hkern u1="&#x7b;" u2="&#xda;" k="20" />
<hkern u1="&#x7b;" u2="&#xd9;" k="20" />
<hkern u1="&#x7b;" u2="U" k="20" />
<hkern u1="&#x7b;" u2="J" k="20" />
<hkern u1="&#xc0;" u2="w" k="33" />
<hkern u1="&#xc0;" u2="t" k="17" />
<hkern u1="&#xc0;" u2="&#x3f;" k="61" />
<hkern u1="&#xc1;" u2="w" k="33" />
<hkern u1="&#xc1;" u2="t" k="17" />
<hkern u1="&#xc1;" u2="&#x3f;" k="61" />
<hkern u1="&#xc2;" u2="w" k="33" />
<hkern u1="&#xc2;" u2="t" k="17" />
<hkern u1="&#xc2;" u2="&#x3f;" k="61" />
<hkern u1="&#xc3;" u2="w" k="33" />
<hkern u1="&#xc3;" u2="t" k="17" />
<hkern u1="&#xc3;" u2="&#x3f;" k="61" />
<hkern u1="&#xc4;" u2="w" k="33" />
<hkern u1="&#xc4;" u2="t" k="17" />
<hkern u1="&#xc4;" u2="&#x3f;" k="61" />
<hkern u1="&#xc5;" u2="w" k="33" />
<hkern u1="&#xc5;" u2="t" k="17" />
<hkern u1="&#xc5;" u2="&#x3f;" k="61" />
<hkern u1="&#xc7;" u2="&#x7d;" k="17" />
<hkern u1="&#xc7;" u2="]" k="12" />
<hkern u1="&#xc7;" u2="&#x29;" k="26" />
<hkern u1="&#xc8;" u2="w" k="22" />
<hkern u1="&#xc8;" u2="f" k="18" />
<hkern u1="&#xc9;" u2="w" k="22" />
<hkern u1="&#xc9;" u2="f" k="18" />
<hkern u1="&#xca;" u2="w" k="22" />
<hkern u1="&#xca;" u2="f" k="18" />
<hkern u1="&#xcb;" u2="w" k="22" />
<hkern u1="&#xcb;" u2="f" k="18" />
<hkern u1="&#xd0;" u2="&#xc6;" k="33" />
<hkern u1="&#xd2;" u2="&#xc6;" k="33" />
<hkern u1="&#xd3;" u2="&#xc6;" k="33" />
<hkern u1="&#xd4;" u2="&#xc6;" k="33" />
<hkern u1="&#xd5;" u2="&#xc6;" k="33" />
<hkern u1="&#xd6;" u2="&#xc6;" k="33" />
<hkern u1="&#xdd;" u2="&#x2022;" k="45" />
<hkern u1="&#xdd;" u2="&#xf8;" k="64" />
<hkern u1="&#xdd;" u2="&#xe6;" k="63" />
<hkern u1="&#xdd;" u2="&#xc6;" k="96" />
<hkern u1="&#xdd;" u2="&#xbb;" k="51" />
<hkern u1="&#xdd;" u2="&#xab;" k="82" />
<hkern u1="&#xdd;" u2="&#x7d;" k="-19" />
<hkern u1="&#xdd;" u2="t" k="22" />
<hkern u1="&#xdd;" u2="r" k="40" />
<hkern u1="&#xdd;" u2="f" k="22" />
<hkern u1="&#xdd;" u2="]" k="-18" />
<hkern u1="&#xdd;" u2="&#x2a;" k="49" />
<hkern u1="&#xdd;" u2="&#x29;" k="-20" />
<hkern u1="&#xdd;" u2="&#x26;" k="30" />
<hkern u1="&#xfd;" u2="f" k="-13" />
<hkern u1="&#xff;" u2="f" k="-13" />
<hkern u1="&#x178;" u2="&#x2022;" k="45" />
<hkern u1="&#x178;" u2="&#xf8;" k="64" />
<hkern u1="&#x178;" u2="&#xe6;" k="63" />
<hkern u1="&#x178;" u2="&#xc6;" k="96" />
<hkern u1="&#x178;" u2="&#xbb;" k="51" />
<hkern u1="&#x178;" u2="&#xab;" k="82" />
<hkern u1="&#x178;" u2="&#x7d;" k="-19" />
<hkern u1="&#x178;" u2="t" k="22" />
<hkern u1="&#x178;" u2="r" k="40" />
<hkern u1="&#x178;" u2="f" k="22" />
<hkern u1="&#x178;" u2="]" k="-18" />
<hkern u1="&#x178;" u2="&#x2a;" k="49" />
<hkern u1="&#x178;" u2="&#x29;" k="-20" />
<hkern u1="&#x178;" u2="&#x26;" k="30" />
<hkern u1="&#x2018;" u2="w" k="-11" />
<hkern u1="&#x2019;" u2="w" k="-11" />
<hkern u1="&#x201c;" u2="w" k="-11" />
<hkern u1="&#x201d;" u2="w" k="-11" />
<hkern g1="B" 	g2="T" 	k="27" />
<hkern g1="B" 	g2="V" 	k="24" />
<hkern g1="B" 	g2="Y,Yacute,Ydieresis" 	k="55" />
<hkern g1="H,I,M,N,Igrave,Iacute,Icircumflex,Idieresis,Ntilde" 	g2="T" 	k="29" />
<hkern g1="H,I,M,N,Igrave,Iacute,Icircumflex,Idieresis,Ntilde" 	g2="Y,Yacute,Ydieresis" 	k="28" />
<hkern g1="H,I,M,N,Igrave,Iacute,Icircumflex,Idieresis,Ntilde" 	g2="A,Agrave,Aacute,Acircumflex,Atilde,Adieresis,Aring" 	k="-18" />
<hkern g1="H,I,M,N,Igrave,Iacute,Icircumflex,Idieresis,Ntilde" 	g2="X" 	k="-17" />
<hkern g1="D,O,Eth,Ograve,Oacute,Ocircumflex,Otilde,Odieresis" 	g2="T" 	k="27" />
<hkern g1="D,O,Eth,Ograve,Oacute,Ocircumflex,Otilde,Odieresis" 	g2="V" 	k="22" />
<hkern g1="D,O,Eth,Ograve,Oacute,Ocircumflex,Otilde,Odieresis" 	g2="Y,Yacute,Ydieresis" 	k="43" />
<hkern g1="D,O,Eth,Ograve,Oacute,Ocircumflex,Otilde,Odieresis" 	g2="A,Agrave,Aacute,Acircumflex,Atilde,Adieresis,Aring" 	k="21" />
<hkern g1="D,O,Eth,Ograve,Oacute,Ocircumflex,Otilde,Odieresis" 	g2="X" 	k="22" />
<hkern g1="D,O,Eth,Ograve,Oacute,Ocircumflex,Otilde,Odieresis" 	g2="comma,period,colon,quotesinglbase,quotedblbase,ellipsis" 	k="102" />
<hkern g1="D,O,Eth,Ograve,Oacute,Ocircumflex,Otilde,Odieresis" 	g2="Z" 	k="23" />
<hkern g1="C,Ccedilla" 	g2="T" 	k="29" />
<hkern g1="E,Egrave,Eacute,Ecircumflex,Edieresis" 	g2="v,y,yacute,ydieresis" 	k="26" />
<hkern g1="E,Egrave,Eacute,Ecircumflex,Edieresis" 	g2="o,ograve,oacute,ocircumflex,otilde,odieresis" 	k="19" />
<hkern g1="E,Egrave,Eacute,Ecircumflex,Edieresis" 	g2="u,ugrave,uacute,ucircumflex,udieresis" 	k="17" />
<hkern g1="E,Egrave,Eacute,Ecircumflex,Edieresis" 	g2="c,d,e,g,q,ccedilla,egrave,eacute,ecircumflex,edieresis,oe" 	k="19" />
<hkern g1="T" 	g2="v,y,yacute,ydieresis" 	k="72" />
<hkern g1="T" 	g2="C,G,O,Q,Ccedilla,Ograve,Oacute,Ocircumflex,Otilde,Odieresis,Oslash,OE" 	k="28" />
<hkern g1="T" 	g2="o,ograve,oacute,ocircumflex,otilde,odieresis" 	k="99" />
<hkern g1="T" 	g2="W" 	k="-15" />
<hkern g1="T" 	g2="T" 	k="-16" />
<hkern g1="T" 	g2="u,ugrave,uacute,ucircumflex,udieresis" 	k="95" />
<hkern g1="T" 	g2="z" 	k="60" />
<hkern g1="T" 	g2="V" 	k="-16" />
<hkern g1="T" 	g2="Y,Yacute,Ydieresis" 	k="-16" />
<hkern g1="T" 	g2="A,Agrave,Aacute,Acircumflex,Atilde,Adieresis,Aring" 	k="79" />
<hkern g1="T" 	g2="comma,period,colon,quotesinglbase,quotedblbase,ellipsis" 	k="218" />
<hkern g1="T" 	g2="c,d,e,g,q,ccedilla,egrave,eacute,ecircumflex,edieresis,oe" 	k="99" />
<hkern g1="T" 	g2="x" 	k="77" />
<hkern g1="T" 	g2="hyphen,uni00AD,endash,emdash" 	k="232" />
<hkern g1="T" 	g2="m,n,p,ntilde" 	k="109" />
<hkern g1="T" 	g2="S" 	k="16" />
<hkern g1="T" 	g2="a,agrave,aacute,acircumflex,atilde,adieresis,aring" 	k="113" />
<hkern g1="T" 	g2="s" 	k="116" />
<hkern g1="K" 	g2="v,y,yacute,ydieresis" 	k="40" />
<hkern g1="K" 	g2="C,G,O,Q,Ccedilla,Ograve,Oacute,Ocircumflex,Otilde,Odieresis,Oslash,OE" 	k="31" />
<hkern g1="K" 	g2="o,ograve,oacute,ocircumflex,otilde,odieresis" 	k="27" />
<hkern g1="K" 	g2="u,ugrave,uacute,ucircumflex,udieresis" 	k="23" />
<hkern g1="K" 	g2="c,d,e,g,q,ccedilla,egrave,eacute,ecircumflex,edieresis,oe" 	k="26" />
<hkern g1="K" 	g2="hyphen,uni00AD,endash,emdash" 	k="64" />
<hkern g1="K" 	g2="m,n,p,ntilde" 	k="23" />
<hkern g1="L" 	g2="v,y,yacute,ydieresis" 	k="133" />
<hkern g1="L" 	g2="C,G,O,Q,Ccedilla,Ograve,Oacute,Ocircumflex,Otilde,Odieresis,Oslash,OE" 	k="65" />
<hkern g1="L" 	g2="U,Ugrave,Uacute,Ucircumflex,Udieresis" 	k="54" />
<hkern g1="L" 	g2="quotedbl,quotesingle,quoteleft,quoteright,quotedblleft,quotedblright" 	k="138" />
<hkern g1="L" 	g2="W" 	k="143" />
<hkern g1="L" 	g2="T" 	k="275" />
<hkern g1="L" 	g2="u,ugrave,uacute,ucircumflex,udieresis" 	k="44" />
<hkern g1="L" 	g2="V" 	k="175" />
<hkern g1="L" 	g2="Y,Yacute,Ydieresis" 	k="239" />
<hkern g1="L" 	g2="A,Agrave,Aacute,Acircumflex,Atilde,Adieresis,Aring" 	k="-19" />
<hkern g1="P" 	g2="v,y,yacute,ydieresis" 	k="-15" />
<hkern g1="P" 	g2="o,ograve,oacute,ocircumflex,otilde,odieresis" 	k="13" />
<hkern g1="P" 	g2="A,Agrave,Aacute,Acircumflex,Atilde,Adieresis,Aring" 	k="138" />
<hkern g1="P" 	g2="X" 	k="31" />
<hkern g1="P" 	g2="comma,period,colon,quotesinglbase,quotedblbase,ellipsis" 	k="324" />
<hkern g1="P" 	g2="Z" 	k="26" />
<hkern g1="P" 	g2="c,d,e,g,q,ccedilla,egrave,eacute,ecircumflex,edieresis,oe" 	k="13" />
<hkern g1="P" 	g2="a,agrave,aacute,acircumflex,atilde,adieresis,aring" 	k="11" />
<hkern g1="J,U,Ugrave,Uacute,Ucircumflex,Udieresis" 	g2="A,Agrave,Aacute,Acircumflex,Atilde,Adieresis,Aring" 	k="22" />
<hkern g1="V" 	g2="v,y,yacute,ydieresis" 	k="11" />
<hkern g1="V" 	g2="C,G,O,Q,Ccedilla,Ograve,Oacute,Ocircumflex,Otilde,Odieresis,Oslash,OE" 	k="13" />
<hkern g1="V" 	g2="o,ograve,oacute,ocircumflex,otilde,odieresis" 	k="46" />
<hkern g1="V" 	g2="u,ugrave,uacute,ucircumflex,udieresis" 	k="28" />
<hkern g1="V" 	g2="A,Agrave,Aacute,Acircumflex,Atilde,Adieresis,Aring" 	k="75" />
<hkern g1="V" 	g2="comma,period,colon,quotesinglbase,quotedblbase,ellipsis" 	k="225" />
<hkern g1="V" 	g2="c,d,e,g,q,ccedilla,egrave,eacute,ecircumflex,edieresis,oe" 	k="44" />
<hkern g1="V" 	g2="hyphen,uni00AD,endash,emdash" 	k="37" />
<hkern g1="V" 	g2="a,agrave,aacute,acircumflex,atilde,adieresis,aring" 	k="46" />
<hkern g1="X" 	g2="v,y,yacute,ydieresis" 	k="31" />
<hkern g1="X" 	g2="C,G,O,Q,Ccedilla,Ograve,Oacute,Ocircumflex,Otilde,Odieresis,Oslash,OE" 	k="25" />
<hkern g1="X" 	g2="o,ograve,oacute,ocircumflex,otilde,odieresis" 	k="21" />
<hkern g1="X" 	g2="u,ugrave,uacute,ucircumflex,udieresis" 	k="21" />
<hkern g1="X" 	g2="V" 	k="-14" />
<hkern g1="X" 	g2="c,d,e,g,q,ccedilla,egrave,eacute,ecircumflex,edieresis,oe" 	k="26" />
<hkern g1="X" 	g2="hyphen,uni00AD,endash,emdash" 	k="46" />
<hkern g1="Y,Yacute,Ydieresis" 	g2="v,y,yacute,ydieresis" 	k="20" />
<hkern g1="Y,Yacute,Ydieresis" 	g2="C,G,O,Q,Ccedilla,Ograve,Oacute,Ocircumflex,Otilde,Odieresis,Oslash,OE" 	k="29" />
<hkern g1="Y,Yacute,Ydieresis" 	g2="U,Ugrave,Uacute,Ucircumflex,Udieresis" 	k="96" />
<hkern g1="Y,Yacute,Ydieresis" 	g2="o,ograve,oacute,ocircumflex,otilde,odieresis" 	k="65" />
<hkern g1="Y,Yacute,Ydieresis" 	g2="W" 	k="-17" />
<hkern g1="Y,Yacute,Ydieresis" 	g2="T" 	k="-17" />
<hkern g1="Y,Yacute,Ydieresis" 	g2="u,ugrave,uacute,ucircumflex,udieresis" 	k="39" />
<hkern g1="Y,Yacute,Ydieresis" 	g2="z" 	k="30" />
<hkern g1="Y,Yacute,Ydieresis" 	g2="V" 	k="-18" />
<hkern g1="Y,Yacute,Ydieresis" 	g2="Y,Yacute,Ydieresis" 	k="-18" />
<hkern g1="Y,Yacute,Ydieresis" 	g2="A,Agrave,Aacute,Acircumflex,Atilde,Adieresis,Aring" 	k="82" />
<hkern g1="Y,Yacute,Ydieresis" 	g2="X" 	k="-13" />
<hkern g1="Y,Yacute,Ydieresis" 	g2="comma,period,colon,quotesinglbase,quotedblbase,ellipsis" 	k="211" />
<hkern g1="Y,Yacute,Ydieresis" 	g2="c,d,e,g,q,ccedilla,egrave,eacute,ecircumflex,edieresis,oe" 	k="65" />
<hkern g1="Y,Yacute,Ydieresis" 	g2="x" 	k="23" />
<hkern g1="Y,Yacute,Ydieresis" 	g2="hyphen,uni00AD,endash,emdash" 	k="52" />
<hkern g1="Y,Yacute,Ydieresis" 	g2="m,n,p,ntilde" 	k="40" />
<hkern g1="Y,Yacute,Ydieresis" 	g2="S" 	k="16" />
<hkern g1="Y,Yacute,Ydieresis" 	g2="a,agrave,aacute,acircumflex,atilde,adieresis,aring" 	k="73" />
<hkern g1="Y,Yacute,Ydieresis" 	g2="s" 	k="58" />
<hkern g1="Y,Yacute,Ydieresis" 	g2="J" 	k="96" />
<hkern g1="W" 	g2="o,ograve,oacute,ocircumflex,otilde,odieresis" 	k="31" />
<hkern g1="W" 	g2="T" 	k="-14" />
<hkern g1="W" 	g2="u,ugrave,uacute,ucircumflex,udieresis" 	k="19" />
<hkern g1="W" 	g2="A,Agrave,Aacute,Acircumflex,Atilde,Adieresis,Aring" 	k="43" />
<hkern g1="W" 	g2="comma,period,colon,quotesinglbase,quotedblbase,ellipsis" 	k="123" />
<hkern g1="W" 	g2="c,d,e,g,q,ccedilla,egrave,eacute,ecircumflex,edieresis,oe" 	k="31" />
<hkern g1="W" 	g2="hyphen,uni00AD,endash,emdash" 	k="60" />
<hkern g1="W" 	g2="a,agrave,aacute,acircumflex,atilde,adieresis,aring" 	k="33" />
<hkern g1="Z" 	g2="v,y,yacute,ydieresis" 	k="27" />
<hkern g1="Z" 	g2="C,G,O,Q,Ccedilla,Ograve,Oacute,Ocircumflex,Otilde,Odieresis,Oslash,OE" 	k="26" />
<hkern g1="Z" 	g2="o,ograve,oacute,ocircumflex,otilde,odieresis" 	k="21" />
<hkern g1="Z" 	g2="u,ugrave,uacute,ucircumflex,udieresis" 	k="19" />
<hkern g1="Z" 	g2="A,Agrave,Aacute,Acircumflex,Atilde,Adieresis,Aring" 	k="-13" />
<hkern g1="Z" 	g2="c,d,e,g,q,ccedilla,egrave,eacute,ecircumflex,edieresis,oe" 	k="21" />
<hkern g1="a,agrave,aacute,acircumflex,atilde,adieresis,aring" 	g2="v,y,yacute,ydieresis" 	k="15" />
<hkern g1="a,agrave,aacute,acircumflex,atilde,adieresis,aring" 	g2="quotedbl,quotesingle,quoteleft,quoteright,quotedblleft,quotedblright" 	k="67" />
<hkern g1="c,ccedilla" 	g2="quotedbl,quotesingle,quoteleft,quoteright,quotedblleft,quotedblright" 	k="11" />
<hkern g1="b,p,thorn" 	g2="v,y,yacute,ydieresis" 	k="11" />
<hkern g1="b,p,thorn" 	g2="quotedbl,quotesingle,quoteleft,quoteright,quotedblleft,quotedblright" 	k="29" />
<hkern g1="b,p,thorn" 	g2="z" 	k="15" />
<hkern g1="b,p,thorn" 	g2="x" 	k="15" />
<hkern g1="e,egrave,eacute,ecircumflex,edieresis" 	g2="v,y,yacute,ydieresis" 	k="13" />
<hkern g1="e,egrave,eacute,ecircumflex,edieresis" 	g2="quotedbl,quotesingle,quoteleft,quoteright,quotedblleft,quotedblright" 	k="14" />
<hkern g1="h,m,n,ntilde" 	g2="quotedbl,quotesingle,quoteleft,quoteright,quotedblleft,quotedblright" 	k="16" />
<hkern g1="o,ograve,oacute,ocircumflex,otilde,odieresis" 	g2="v,y,yacute,ydieresis" 	k="15" />
<hkern g1="o,ograve,oacute,ocircumflex,otilde,odieresis" 	g2="quotedbl,quotesingle,quoteleft,quoteright,quotedblleft,quotedblright" 	k="20" />
<hkern g1="o,ograve,oacute,ocircumflex,otilde,odieresis" 	g2="z" 	k="16" />
<hkern g1="o,ograve,oacute,ocircumflex,otilde,odieresis" 	g2="x" 	k="21" />
<hkern g1="v,y,yacute,ydieresis" 	g2="quotedbl,quotesingle,quoteleft,quoteright,quotedblleft,quotedblright" 	k="-15" />
<hkern g1="v,y,yacute,ydieresis" 	g2="o,ograve,oacute,ocircumflex,otilde,odieresis" 	k="15" />
<hkern g1="v,y,yacute,ydieresis" 	g2="comma,period,colon,quotesinglbase,quotedblbase,ellipsis" 	k="107" />
<hkern g1="v,y,yacute,ydieresis" 	g2="c,d,e,g,q,ccedilla,egrave,eacute,ecircumflex,edieresis,oe" 	k="13" />
<hkern g1="v,y,yacute,ydieresis" 	g2="a,agrave,aacute,acircumflex,atilde,adieresis,aring" 	k="15" />
<hkern g1="r" 	g2="v,y,yacute,ydieresis" 	k="-18" />
<hkern g1="r" 	g2="quotedbl,quotesingle,quoteleft,quoteright,quotedblleft,quotedblright" 	k="-16" />
<hkern g1="r" 	g2="o,ograve,oacute,ocircumflex,otilde,odieresis" 	k="20" />
<hkern g1="r" 	g2="comma,period,colon,quotesinglbase,quotedblbase,ellipsis" 	k="123" />
<hkern g1="r" 	g2="c,d,e,g,q,ccedilla,egrave,eacute,ecircumflex,edieresis,oe" 	k="19" />
<hkern g1="x" 	g2="o,ograve,oacute,ocircumflex,otilde,odieresis" 	k="20" />
<hkern g1="x" 	g2="c,d,e,g,q,ccedilla,egrave,eacute,ecircumflex,edieresis,oe" 	k="20" />
<hkern g1="z" 	g2="o,ograve,oacute,ocircumflex,otilde,odieresis" 	k="16" />
<hkern g1="z" 	g2="c,d,e,g,q,ccedilla,egrave,eacute,ecircumflex,edieresis,oe" 	k="16" />
<hkern g1="quotedbl,quotesingle,quoteleft,quoteright,quotedblleft,quotedblright" 	g2="quotedbl,quotesingle,quoteleft,quoteright,quotedblleft,quotedblright" 	k="107" />
<hkern g1="quotedbl,quotesingle,quoteleft,quoteright,quotedblleft,quotedblright" 	g2="o,ograve,oacute,ocircumflex,otilde,odieresis" 	k="61" />
<hkern g1="quotedbl,quotesingle,quoteleft,quoteright,quotedblleft,quotedblright" 	g2="A,Agrave,Aacute,Acircumflex,Atilde,Adieresis,Aring" 	k="106" />
<hkern g1="quotedbl,quotesingle,quoteleft,quoteright,quotedblleft,quotedblright" 	g2="c,d,e,g,q,ccedilla,egrave,eacute,ecircumflex,edieresis,oe" 	k="59" />
<hkern g1="quotedbl,quotesingle,quoteleft,quoteright,quotedblleft,quotedblright" 	g2="m,n,p,ntilde" 	k="20" />
<hkern g1="quotedbl,quotesingle,quoteleft,quoteright,quotedblleft,quotedblright" 	g2="a,agrave,aacute,acircumflex,atilde,adieresis,aring" 	k="50" />
<hkern g1="quotedbl,quotesingle,quoteleft,quoteright,quotedblleft,quotedblright" 	g2="s" 	k="42" />
</font>
</defs></svg> 